value,params_activation,params_activation_out,params_batch_size,params_channels_cnn,params_dropout_rate,params_hidden_size_mlp,params_kernel_cnn,params_kernel_pool,params_last_layer_scaler,params_layers_cnn,params_layers_mlp,params_lr,params_num_classes,user_attrs_complexity
27.629313349723816,ELU,Sigmoid,32,512,0.3765126076075483,256,8,2,20,3,1,0.0016748519378453957,1,6310401
0.7606313452124596,LeakyReLU,Sigmoid,64,64,0.0290291638002238,256,6,2,20,3,1,0.00013990039237926852,1,75585
0.5458655562251806,LeakyReLU,Sigmoid,64,256,0.4329896581254672,128,8,2,20,2,3,0.0014135398807477444,1,1172609
0.7774761132895947,ELU,Sigmoid,32,64,0.038156107649076954,256,8,1,20,3,3,0.00024923983975273523,1,658433
27.517104983329773,LeakyReLU,Sigmoid,32,128,0.2279950394822694,64,4,1,20,2,2,0.008732693176691318,1,379393
236.5200891494751,ELU,Sigmoid,64,128,0.47533927222998285,64,4,2,20,2,3,0.0059041642672878905,1,162369
0.7055126763880253,ReLU,Sigmoid,64,64,0.036992164379536174,256,4,2,20,2,1,0.00270572071254851,1,34177
27.697612404823303,ELU,Sigmoid,32,512,0.11446514849001682,128,10,2,20,2,2,0.0013837699445032182,1,5461761
27.717916131019592,LeakyReLU,Sigmoid,64,128,0.22500244649027296,512,8,1,20,1,2,0.008999691806469413,1,2102529
27.64424192905426,ELU,Sigmoid,64,128,0.399312360576347,512,6,1,20,1,2,0.0023642486560538564,1,2068737
0.5857685841619968,ReLU,Sigmoid,64,256,0.3194767457505034,128,10,2,20,1,3,0.0005322552830993672,1,912257
0.6175316944718361,ReLU,Sigmoid,64,256,0.3403884210825082,128,10,2,20,1,3,0.0005406043316733083,1,912257
0.5867719762027264,ReLU,Sigmoid,64,256,0.48274684694594105,1024,10,2,20,1,3,0.0005754233379475459,1,3552769
1.07489974796772,LeakyReLU,Sigmoid,64,256,0.30269539021626574,128,10,2,20,1,3,0.0005900527394516853,1,912257
1.0167743414640427,ReLU,Sigmoid,64,256,0.4128886858703809,128,8,2,20,2,3,0.0003002600685305292,1,1172609
1.0698854960501194,ReLU,Sigmoid,64,256,0.28182543747808186,128,10,2,20,1,3,0.0009718879622913868,1,912257
1.1732152998447418,LeakyReLU,Sigmoid,64,256,0.17620779376321657,1024,8,2,20,3,2,0.00010949266444184542,1,1846273
27.53271174430847,ReLU,Sigmoid,64,256,0.4471876808512908,128,6,1,20,2,3,0.0033204134294333183,1,1793153
0.5456872470676899,LeakyReLU,Sigmoid,32,256,0.33228306528221047,128,10,2,20,2,3,0.0008355756624513162,1,1436801
27.507561206817627,LeakyReLU,Sigmoid,32,512,0.36320887466633434,128,8,2,20,2,2,0.0009171160743755202,1,4409089
27.58831214904785,LeakyReLU,Sigmoid,32,256,0.4390512006562616,512,10,1,20,2,2,0.0038992364528934583,1,5254913
0.5391797721385956,LeakyReLU,Sigmoid,32,256,0.323058110570946,128,10,2,20,2,3,0.0003503458675617191,1,1436801
0.7978372573852539,LeakyReLU,Sigmoid,32,256,0.274616950340435,128,10,2,20,2,3,0.00020539538459431398,1,1436801
0.5619528982788324,LeakyReLU,Sigmoid,32,256,0.349428281674438,128,10,2,20,2,3,0.0014702094753144856,1,1436801
0.7902478314936161,LeakyReLU,Sigmoid,32,256,0.18901739559086767,128,10,2,20,2,3,0.000299785606180479,1,1436801
0.7156748622655869,LeakyReLU,Sigmoid,32,256,0.40483180711397504,1024,8,2,20,3,3,0.0007388254780048611,1,2895873
1.0296368598937988,LeakyReLU,Sigmoid,32,256,0.4394524989481225,64,4,2,20,2,3,0.000385256428787574,1,582593
0.7560081258416176,LeakyReLU,Sigmoid,32,64,0.4967882968456833,128,6,2,20,2,2,0.0012596180766775305,1,75713
236.6896619796753,LeakyReLU,Sigmoid,32,512,0.3157170070176761,128,10,2,20,3,3,0.002079084191848928,1,7969153
27.638638377189636,LeakyReLU,Sigmoid,32,512,0.379766863607119,128,8,2,20,2,1,0.0017739959050636612,1,4213761
0.6891503855586052,LeakyReLU,Sigmoid,32,256,0.24300777685211425,512,8,2,20,3,3,0.00017191353330400663,1,1976833
0.5452430956065655,LeakyReLU,Sigmoid,32,256,0.3424368062419241,128,10,2,20,2,3,0.0013206663582061115,1,1436801
0.5431727785617113,LeakyReLU,Sigmoid,32,256,0.3731759314259239,128,10,2,20,2,3,0.0007816336995166576,1,1436801
0.691510085016489,LeakyReLU,Sigmoid,32,256,0.3724282319612631,256,10,2,20,2,3,0.00040591877891576946,1,1584641
0.8294625505805016,LeakyReLU,Sigmoid,32,64,0.27240921975327737,128,10,2,20,2,3,0.0007693504654925744,1,126017
0.5536556392908096,LeakyReLU,Sigmoid,32,256,0.3224751973536075,128,10,2,20,2,3,0.0011178400255295287,1,1436801
27.509941697120667,ELU,Sigmoid,32,256,0.3411378401516292,64,10,2,20,2,3,0.0007276660016729107,1,1375169
0.6285998485982418,LeakyReLU,Sigmoid,32,128,0.2981172529717522,256,10,2,20,3,1,0.0004042318449419196,1,497281
1.0185460522770882,LeakyReLU,Sigmoid,32,64,0.39478279941190286,128,4,1,20,2,2,0.001007590533724628,1,280001
27.67018437385559,ELU,Sigmoid,32,256,0.20732381105047407,1024,10,2,20,2,3,0.0018806455440268336,1,3159809
27.573256611824036,LeakyReLU,Sigmoid,32,128,0.12673752999871019,64,6,2,20,2,2,0.0045419488859553495,1,224769
27.806938529014587,LeakyReLU,Sigmoid,32,256,0.41777592549768383,128,10,2,20,2,3,0.0014855896885393007,1,1436801
0.7387708909809589,LeakyReLU,Sigmoid,32,256,0.45904119327760995,128,4,2,20,2,3,0.001188365342613276,1,644225
27.806938529014587,LeakyReLU,Sigmoid,32,256,0.3649787777196599,128,10,2,20,2,3,0.0023080125790613045,1,1436801
27.73664128780365,ELU,Sigmoid,64,256,0.33603539315976017,256,8,2,20,2,3,0.0008333444864857201,1,1320449
27.746049284934998,LeakyReLU,Sigmoid,32,512,0.006441929010026076,128,10,2,20,2,3,0.002822054058389705,1,5478273
1.0119991712272167,LeakyReLU,Sigmoid,64,256,0.3922589771782351,128,10,2,20,1,3,0.0004523105059610232,1,912257
0.5337617471814156,LeakyReLU,Sigmoid,64,128,0.4244527744876701,512,6,1,20,2,3,0.0006591771321137142,1,2429825
0.503808768466115,LeakyReLU,Sigmoid,32,128,0.26106892289150474,512,6,1,20,2,3,0.00032144536925242953,1,2429825
1.5122186094522476,ELU,Sigmoid,64,128,0.25445121993746456,512,6,1,20,2,3,0.00029678511670388976,1,2429825
1.0160079188644886,LeakyReLU,Sigmoid,64,128,0.30391786416909283,512,6,1,20,2,2,0.0001999356621802905,1,2167169
0.5367287807166576,LeakyReLU,Sigmoid,32,128,0.29281085105606913,512,6,1,20,2,3,0.0006460346912483873,1,2429825
0.5379377845674753,LeakyReLU,Sigmoid,32,128,0.25843805919074114,512,6,1,20,2,3,0.0006244329949617682,1,2429825
0.7476890161633492,LeakyReLU,Sigmoid,32,128,0.25102805246378,512,6,1,20,2,3,0.0006578478737955547,1,2429825
0.5134288389235735,ReLU,Sigmoid,32,128,0.22886374852118863,512,6,1,20,2,3,0.00033854022976673257,1,2429825
0.5219821687787771,ReLU,Sigmoid,32,128,0.2227473214950269,512,6,1,20,2,3,0.0004768869106904977,1,2429825
0.5236853044480085,ReLU,Sigmoid,32,128,0.15894818599798727,512,6,1,20,2,3,0.0005028224575967571,1,2429825
0.526516443118453,ReLU,Sigmoid,64,128,0.1392239875919819,512,6,1,20,2,3,0.0004948436657731815,1,2429825
0.8441565968096256,ReLU,Sigmoid,64,128,0.13633365527025082,512,6,1,20,1,3,0.0004929329571870457,1,2331393
0.5928285643458366,ReLU,Sigmoid,64,128,0.07525171282240001,512,6,1,20,2,3,0.00025279886321764606,1,2429825
0.5106536317616701,ReLU,Sigmoid,64,128,0.16189413595004132,512,6,1,20,2,3,0.0003361813942739795,1,2429825
0.5195173639804125,ReLU,Sigmoid,64,128,0.15747082009616295,512,6,1,20,2,3,0.0003378518118142574,1,2429825
0.64951191842556,ReLU,Sigmoid,64,128,0.1558695470130216,512,6,1,20,2,3,0.0003450810173321798,1,2429825
0.5100427009165287,ReLU,Sigmoid,64,128,0.175278668376412,512,6,1,20,2,3,0.00024126277523324097,1,2429825
0.8709420934319496,ReLU,Sigmoid,64,128,0.21985400842178038,512,6,1,20,2,3,0.00013197476769051005,1,2429825
0.6477990932762623,ReLU,Sigmoid,64,128,0.10001083597321161,512,6,1,20,2,3,0.00024422851194560335,1,2429825
0.596617178991437,ReLU,Sigmoid,64,128,0.17967764941722242,512,6,1,20,2,3,0.00025687899018071,1,2429825
0.8546536862850189,ReLU,Sigmoid,64,128,0.1986141797382952,512,6,1,20,2,3,0.000159545624524463,1,2429825
1.0299880914390087,ReLU,Sigmoid,64,128,0.16534075445389446,512,6,1,20,2,2,0.0003399670623384638,1,2167169
0.8203857243061066,ReLU,Sigmoid,64,128,0.0898637578495815,512,6,1,20,2,3,0.00022338820383835707,1,2429825
0.6310964934527874,ReLU,Sigmoid,64,128,0.23334285216364306,512,6,1,20,3,3,0.0002903386686602956,1,2528257
0.6479542776942253,ReLU,Sigmoid,64,128,0.1442718651741909,512,6,1,20,2,3,0.00046590603504810004,1,2429825
0.514612203463912,ReLU,Sigmoid,64,128,0.16333791148749216,512,6,1,20,2,3,0.0003815801547900699,1,2429825
0.5154257398098707,ReLU,Sigmoid,64,128,0.20208580830387604,512,6,1,20,2,3,0.00036729610221803024,1,2429825
0.8438153564929962,ReLU,Sigmoid,64,128,0.2161493730258061,512,6,1,20,2,3,0.000190423245578654,1,2429825
0.5288721043616533,ReLU,Sigmoid,64,128,0.1943625747802397,512,6,1,20,2,3,0.0003789458993560808,1,2429825
0.7059798911213875,ReLU,Sigmoid,64,128,0.18180046564458355,512,6,1,20,2,3,0.00032726250264968006,1,2429825
0.9061940237879753,ReLU,Sigmoid,64,128,0.23158618263128022,1024,6,1,20,2,1,0.00041962754341535416,1,203905
0.9259348958730698,ReLU,Sigmoid,64,64,0.1737102851522248,512,6,1,20,2,3,0.00027692873531867104,1,1297601
0.7160580307245255,ReLU,Sigmoid,64,128,0.20505292631483835,512,6,1,20,2,3,0.00023339466915507743,1,2429825
0.9803994372487068,ReLU,Sigmoid,64,128,0.11574706680213137,64,4,1,20,2,3,0.000153753864749972,1,383553
0.5209857020527124,ReLU,Sigmoid,32,128,0.17011825825009427,512,6,1,20,2,3,0.0003311472265865318,1,2429825
0.6544975079596043,ReLU,Sigmoid,32,128,0.15268114843227243,512,6,1,20,2,3,0.000553540413116211,1,2429825
0.531064884737134,ReLU,Sigmoid,64,128,0.2117647182792463,512,6,1,20,2,3,0.00033323756706565025,1,2429825
0.514536015689373,ReLU,Sigmoid,32,512,0.19161582269827826,512,6,1,20,2,3,0.00037230060960703217,1,11287553
0.8754394017159939,ReLU,Sigmoid,64,512,0.18864914391080093,256,6,1,20,2,3,0.0002160086090919285,1,7158017
0.5146041661500931,ReLU,Sigmoid,32,512,0.1731618919891343,512,6,1,20,2,3,0.00027070639163619386,1,11287553
0.4995250962674618,ReLU,Sigmoid,32,512,0.12344255070064378,512,6,1,20,2,3,0.00018819528094103684,1,11287553
0.4984993375837803,ReLU,Sigmoid,32,512,0.06614299221073587,512,6,1,20,2,3,0.0001307151452591361,1,11287553
0.4931354969739914,ReLU,Sigmoid,32,512,0.12760668460441477,512,6,1,20,2,3,0.00013391143919198813,1,11287553
0.5040581915527582,ReLU,Sigmoid,32,512,0.05446868589314785,1024,4,1,20,2,3,0.00011475688644050957,1,18887169
0.4970164317637682,ReLU,Sigmoid,32,512,0.05956727446648849,1024,4,1,20,2,3,0.00011204452793662009,1,18887169
0.4954529497772455,ReLU,Sigmoid,32,512,0.05331570751848376,1024,4,1,20,2,3,0.00010056780927870189,1,18887169
0.49027360044419765,ReLU,Sigmoid,32,512,0.04098194849094011,1024,4,1,20,2,3,0.00010013324722686863,1,18887169
0.5006377063691616,ReLU,Sigmoid,32,512,0.05962847002061927,1024,4,1,20,2,3,0.00010105044496640318,1,18887169
27.766276836395264,ELU,Sigmoid,32,512,0.05743013395113886,1024,4,1,20,2,3,0.00010174390739571592,1,18887169
0.4964054301381111,ReLU,Sigmoid,32,512,0.036083850203527834,1024,4,1,20,2,3,0.00012367815273859944,1,18887169
0.49998183734714985,ReLU,Sigmoid,32,512,0.032206459979790214,1024,4,1,20,2,3,0.0001240141668823107,1,18887169
0.4937868360430002,ReLU,Sigmoid,32,512,0.023431552707527392,1024,4,1,20,2,3,0.000128665456907477,1,18887169
0.6843743436038494,ReLU,Sigmoid,32,512,0.017208690211711748,1024,4,1,20,2,3,0.00012500613295739424,1,18887169
0.4995973836630583,ReLU,Sigmoid,32,512,0.03769452221374845,1024,4,1,20,2,3,0.00014431789734828295,1,18887169
0.49466284550726414,ReLU,Sigmoid,32,512,0.045397515319044957,1024,4,1,20,2,3,0.00014443578826779015,1,18887169
0.681920412927866,ReLU,Sigmoid,32,512,0.0331424440857502,1024,4,1,20,2,3,0.00014478529731034987,1,18887169
0.4903485141694546,ReLU,Sigmoid,32,512,0.02336592496827559,1024,4,1,20,2,3,0.00012014967159604433,1,18887169
0.5039520617574453,ReLU,Sigmoid,32,512,0.020843257772332778,1024,4,1,20,2,3,0.00018413756812666568,1,18887169
0.4967226032167673,ReLU,Sigmoid,32,512,0.04694281493877506,1024,4,1,20,2,3,0.00011589100315290867,1,18887169
0.4889922961592674,ReLU,Sigmoid,32,512,0.003096175935269868,1024,4,1,20,2,3,0.00011367022014892745,1,18887169
0.49736891500651836,ReLU,Sigmoid,32,512,0.048595609346398234,1024,4,1,20,2,3,0.00011346886032349543,1,18887169
0.49476001039147377,ReLU,Sigmoid,32,512,0.046032295003560396,1024,4,1,20,2,3,0.00011335118100061163,1,18887169
0.6823236607015133,ReLU,Sigmoid,32,512,0.0021104303250465035,1024,4,1,20,2,3,0.00011118554448825929,1,18887169
27.63340985774994,ELU,Sigmoid,32,512,0.0443432070139924,1024,4,1,20,2,2,0.00016930229152281633,1,17837569
0.4973469078540802,ReLU,Sigmoid,32,512,0.046126951683104,1024,4,1,20,2,3,0.00011500614293383213,1,18887169
0.4997981358319521,ReLU,Sigmoid,32,512,0.07878673308272338,1024,4,1,20,2,3,0.0001207051815578454,1,18887169
0.4880652092397213,ReLU,Sigmoid,32,512,0.019711865065189935,1024,4,1,20,2,3,0.00013542084297231717,1,18887169
0.4976781699806452,ReLU,Sigmoid,32,512,0.018042261483649458,1024,4,1,20,2,3,0.00014083821642471467,1,18887169
0.49435187689960003,ReLU,Sigmoid,32,512,0.006759127838488928,1024,4,1,20,2,3,0.00010170004491652385,1,18887169
0.4960960056632757,ReLU,Sigmoid,32,512,0.007976377137506471,1024,4,1,20,2,3,0.0001005072630638151,1,18887169
0.6873835362493992,ReLU,Sigmoid,32,512,0.011823776810696733,1024,4,1,20,2,3,0.00010024883138491766,1,18887169
0.5001516658812761,ReLU,Sigmoid,32,512,0.025809721467539286,1024,4,1,20,2,3,0.00015637070055258428,1,18887169
0.6831022948026657,ReLU,Sigmoid,32,512,0.00014125397669852158,1024,4,1,20,2,3,0.00013327064829234464,1,18887169
0.681122288107872,ReLU,Sigmoid,32,512,0.0128701949346599,1024,4,1,20,2,3,0.00016805817683211282,1,18887169
0.5678982734680176,ReLU,Sigmoid,32,512,0.03012640357580264,1024,4,1,20,2,3,0.00010383462298403754,1,18887169
0.5007184147834778,ReLU,Sigmoid,32,512,0.06881756650674567,1024,4,1,20,2,3,0.00012294560305684153,1,18887169
0.5017479360103607,ReLU,Sigmoid,32,512,0.08885512356184105,1024,4,1,20,2,3,0.00013904796648831248,1,18887169
0.49633876606822014,ReLU,Sigmoid,32,512,0.024022291260018768,1024,4,1,20,2,3,0.0001496082019455115,1,18887169
27.766276836395264,ReLU,Sigmoid,32,512,0.008031111022590414,1024,4,1,20,2,3,0.008163256952200663,1,18887169
0.5668260622769594,ReLU,Sigmoid,32,512,0.026729873724080873,1024,4,1,20,2,3,0.00014946416677819713,1,18887169
0.6847360171377659,ReLU,Sigmoid,32,512,0.038201825889293994,1024,4,1,20,2,3,0.00013275152042233838,1,18887169
0.4978393130004406,ReLU,Sigmoid,32,512,0.02244715275647912,1024,4,1,20,2,3,0.0001737558035064782,1,18887169
0.9239096641540527,ReLU,Sigmoid,32,64,0.03927917303702498,1024,4,1,20,2,3,0.00010728189532202516,1,3051713
27.766276836395264,ELU,Sigmoid,32,512,0.010054284405674574,1024,4,1,20,2,3,0.000125796677852593,1,18887169
0.49523952417075634,ReLU,Sigmoid,32,512,0.05171424924213042,1024,4,1,20,2,3,0.00010975838846893405,1,18887169
0.7450923472642899,ReLU,Sigmoid,32,512,0.07966967837756653,1024,4,1,20,2,3,0.00010993677313577632,1,18887169
0.4920624103397131,ReLU,Sigmoid,32,512,0.0010217432587790107,1024,4,1,20,2,3,0.0001575429689330229,1,18887169
0.5646446198225021,ReLU,Sigmoid,32,512,0.0009837583943265093,1024,4,1,20,2,3,0.00015122198195095555,1,18887169
0.8536618240177631,ReLU,Sigmoid,32,512,0.020224369229465296,64,8,1,20,2,3,0.00013635345301025894,1,5199553
0.49490043334662914,ReLU,Sigmoid,32,512,0.05112228399570869,1024,4,1,20,2,3,0.0001652707927250395,1,18887169
0.7546211294829845,ReLU,Sigmoid,32,512,0.09808253228444402,1024,4,1,20,2,3,0.00010341956925370984,1,18887169
0.8524450622498989,ReLU,Sigmoid,32,512,0.06582339404981367,256,4,1,20,2,1,0.000165965931048363,1,2122241
0.49460594914853573,ReLU,Sigmoid,32,512,0.055625537211256064,1024,4,1,20,2,3,0.00011751391763891376,1,18887169
0.502111978828907,ReLU,Sigmoid,32,512,0.0510530811979327,1024,4,1,20,2,3,0.00011993065524816816,1,18887169
0.7488623708486557,ReLU,Sigmoid,32,512,0.012297297968509622,1024,4,1,20,2,3,0.00010064468123765314,1,18887169
0.5049435719847679,ReLU,Sigmoid,32,512,0.03197119276759209,1024,4,1,20,2,3,0.00013066099975460053,1,18887169
0.5699973180890083,ReLU,Sigmoid,32,512,0.054379385222699875,1024,4,1,20,2,3,0.00011369465863342907,1,18887169
0.5048317387700081,ReLU,Sigmoid,32,512,0.042344638372784286,1024,4,1,20,2,3,0.00014314821828900144,1,18887169
0.6159049794077873,ReLU,Sigmoid,32,512,0.0678094674406449,1024,4,1,20,2,3,0.00019961667438610757,1,18887169
0.7423301450908184,ReLU,Sigmoid,32,512,0.013717000036614961,1024,4,1,20,2,3,0.00011045172334088804,1,18887169
0.4920101426541805,ReLU,Sigmoid,32,512,0.0011593622354121001,1024,4,1,20,2,3,0.00012544833555482875,1,18887169
0.5034607816487551,ReLU,Sigmoid,32,512,0.02781041286683327,1024,4,1,20,2,3,0.00015753472898179648,1,18887169
0.9509376399219036,ReLU,Sigmoid,32,64,0.08464319575511603,1024,8,1,20,2,3,0.0001318017813277425,1,3085505
0.49905865639448166,ReLU,Sigmoid,32,512,0.04355623943718085,1024,4,1,20,2,3,0.00017982737574054916,1,18887169
0.6793371997773647,ReLU,Sigmoid,32,512,0.004467121721028893,1024,4,1,20,2,3,0.00012149361097359727,1,18887169
0.4933768976479769,ReLU,Sigmoid,32,512,0.018104005981550188,1024,4,1,20,2,3,0.00010772491813194885,1,18887169
0.570678073912859,ReLU,Sigmoid,32,512,0.02062855394702308,1024,4,1,20,2,3,0.00011684510613765297,1,18887169
0.6768703237175941,ReLU,Sigmoid,32,512,0.00022369107699364316,1024,4,1,20,2,3,0.00013630038362248022,1,18887169
0.8452182672917843,ReLU,Sigmoid,32,512,0.0552214716295126,64,4,1,20,2,3,0.00012263961120064537,1,3094209
0.4935781192034483,ReLU,Sigmoid,32,512,0.03606194648793196,1024,4,1,20,2,3,0.00010981913880684295,1,18887169
27.766276836395264,ELU,Sigmoid,32,512,0.03616288063265127,1024,4,1,20,2,3,0.00015971323101878263,1,18887169
0.6744435466825962,ReLU,Sigmoid,32,512,0.01796715107596684,1024,4,1,20,2,3,0.0001434551742813876,1,18887169
0.8151316270232201,ReLU,Sigmoid,32,512,0.03153879854083394,256,4,1,20,2,3,0.00011138393184271774,1,6105345
0.6783180572092533,ReLU,Sigmoid,32,512,0.07330947507798505,1024,4,1,20,2,3,0.00013060558254333426,1,18887169
0.6010591350495815,ReLU,Sigmoid,32,512,0.047805400103164065,1024,4,1,20,2,3,0.00010930399961303409,1,18887169
0.7406303696334362,ReLU,Sigmoid,32,512,0.060735840113412334,1024,4,1,20,2,3,0.00012156213326929148,1,18887169
0.6777459606528282,ReLU,Sigmoid,32,512,0.025539844438224345,1024,4,1,20,2,3,0.00010143980257500075,1,18887169
0.5668325833976269,ReLU,Sigmoid,32,512,0.015590357312666224,1024,4,1,20,2,3,0.00014016586184043803,1,18887169
0.6784433573484421,ReLU,Sigmoid,32,512,0.04143730199449495,1024,4,1,20,2,3,0.00011281989136332806,1,18887169
0.7398892529308796,ReLU,Sigmoid,32,512,0.09794226260056829,1024,4,1,20,2,3,0.0001248355969024809,1,18887169
0.7391714081168175,ReLU,Sigmoid,32,512,0.0328309099764099,1024,4,1,20,2,3,0.00010012421474291839,1,18887169
0.6763375774025917,ReLU,Sigmoid,32,512,0.010374956339843158,1024,4,1,20,2,3,0.00015432906353895934,1,18887169
0.7383339256048203,ReLU,Sigmoid,32,512,0.054459915853930396,1024,4,1,20,2,3,0.00010937685643974381,1,18887169
0.7880320399999619,ReLU,Sigmoid,32,512,0.023913504045874074,1024,4,1,20,2,2,0.00012978284955577938,1,17837569
0.7443066984415054,ReLU,Sigmoid,32,512,0.0007476985512867296,1024,4,1,20,2,3,0.00010868452003206909,1,18887169
0.6979619190096855,ReLU,Sigmoid,32,512,0.010289462337774391,1024,4,1,20,2,3,0.00012097678376029075,1,18887169
0.6788526847958565,ReLU,Sigmoid,32,512,0.0384175521304886,1024,4,1,20,2,3,0.00010326699219834697,1,18887169
0.6895098313689232,ReLU,Sigmoid,32,512,0.018249120425162968,1024,4,1,20,2,3,0.00013935625052813804,1,18887169
0.6826540566980839,ReLU,Sigmoid,32,512,0.027748701080037387,1024,4,1,20,2,3,0.00010127599121236472,1,18887169
0.9896260313689709,ReLU,Sigmoid,32,64,0.047692255582284265,1024,8,1,20,2,3,0.00011913824049601326,1,3085505
0.569933632388711,ReLU,Sigmoid,32,512,0.008591068177229662,1024,4,1,20,2,3,0.00017052109982792452,1,18887169
0.7488173507153988,ReLU,Sigmoid,32,512,0.06080450745880744,1024,4,1,20,2,3,0.00010017999516917388,1,18887169
0.7395087070763111,ReLU,Sigmoid,32,512,0.03263498652334077,1024,4,1,20,2,3,0.00011474818126967273,1,18887169
0.5656176004558802,ReLU,Sigmoid,32,512,0.016521962487830413,1024,4,1,20,2,3,0.0001300993627802457,1,18887169
0.49900464713573456,ReLU,Sigmoid,32,512,0.025458555583218443,1024,4,1,20,2,3,0.0001514452748521956,1,18887169
0.6767877265810966,ReLU,Sigmoid,32,512,0.00461687800667226,1024,4,1,20,2,3,0.00014964851781408445,1,18887169
0.6001344751566648,ReLU,Sigmoid,32,512,0.042609485379572154,1024,4,1,20,2,3,0.00013661603795244148,1,18887169
0.5675258748233318,ReLU,Sigmoid,32,512,0.02166643013281395,1024,4,1,20,2,3,0.00011722450041247285,1,18887169
0.4930510465055704,ReLU,Sigmoid,32,512,3.350319865538104e-05,1024,4,1,20,2,3,0.0001099179732156263,1,18887169
1.152155540883541,ELU,Sigmoid,32,512,0.0012513644160764177,64,4,1,20,2,3,0.00010995307032401756,1,3094209
0.7436382509768009,ReLU,Sigmoid,32,512,0.00949726398121356,1024,4,1,20,2,3,0.00012467239867178427,1,18887169
0.7784326113760471,ReLU,Sigmoid,32,512,0.0714499345782817,256,4,1,20,2,3,0.00010863338547434942,1,6105345
0.7003822773694992,ReLU,Sigmoid,32,512,0.01294892500977938,1024,4,1,20,2,3,0.00013262852323632824,1,18887169
0.5014965198934078,ReLU,Sigmoid,32,512,0.0517017760170526,1024,4,1,20,2,3,0.00011654416609052369,1,18887169
0.5993840415030718,ReLU,Sigmoid,32,512,0.025928565939416243,1024,4,1,20,2,3,0.00014606128241983267,1,18887169
0.5615332666784525,ReLU,Sigmoid,32,512,0.03602251167439706,1024,4,1,20,2,3,0.00016424989235017064,1,18887169
0.6766942217946053,ReLU,Sigmoid,32,512,0.021298849450065917,1024,4,1,20,2,3,0.00010012463455518698,1,18887169
0.685873057693243,ReLU,Sigmoid,32,512,0.010159919899660988,1024,4,1,20,2,3,0.00012528643723399047,1,18887169
0.48661791533231735,ReLU,Sigmoid,32,512,0.0011362148028452278,1024,4,1,20,2,3,0.00018470643675095265,1,18887169
0.7432118803262711,ReLU,Sigmoid,32,512,0.0030068818419160797,1024,4,1,20,2,3,0.00011036937535729397,1,18887169
0.5086790937930346,ReLU,Sigmoid,32,512,0.00037965026160151263,1024,4,1,20,2,3,0.00019349595617790808,1,18887169
0.6803655624389648,ReLU,Sigmoid,32,512,0.01348729924554909,1024,4,1,20,2,3,0.0001336941354846241,1,18887169
0.6778820343315601,ReLU,Sigmoid,32,512,0.034302723658385215,1024,4,1,20,2,3,0.00011863496588595842,1,18887169
