value,params_act_gnn,params_act_mlp,params_activation_out,params_batch_size,params_dim_gnn_embedding,params_dropout_gnn,params_dropout_mlp,params_gnn_norm,params_hidden_size_mlp,params_in_edge_channels,params_in_node_channels,params_lr,params_num_classes,params_num_gnn_head,params_num_gnn_layers,params_num_layers_mlp,params_processing_steps_readout,params_readout_layer,user_attrs_complexity
1.4257086009764282,LeakyReLU,LeakyReLU,Sigmoid,64,256,0.1,0.05,False,64,2,4,0.0007034117292345518,1,1,3,2,10,max,940161
1.6608219149171328,ReLU,LeakyReLU,Sigmoid,32,128,0.1,0.0,True,256,2,4,0.0072771010541905915,1,2,4,1,10,all,249857
1.5223988585296224,ReLU,ReLU,Sigmoid,32,128,0.1,0.0,False,256,2,4,0.0027944788531498728,1,1,4,2,10,all,380929
1.9603230462211076,LeakyReLU,LeakyReLU,Sigmoid,64,128,0.05,0.05,True,256,2,4,0.00013700651491012125,1,4,3,3,10,set2set,364289
1.8843291309036192,LeakyReLU,LeakyReLU,Sigmoid,32,256,0.0,0.1,True,128,2,4,0.00012665552922651213,1,4,2,2,10,set2set,922881
2.2985597951490373,ReLU,LeakyReLU,Sigmoid,32,64,0.05,0.1,False,256,2,4,0.0011152368321948908,1,1,5,1,10,set2set,67713
1.6393164213075013,ReLU,ReLU,Sigmoid,32,64,0.0,0.0,False,128,2,4,0.008345269302399393,1,2,2,3,10,all,104065
1.5591605359413585,LeakyReLU,LeakyReLU,Sigmoid,64,64,0.0,0.1,True,64,2,4,0.0021001881197996682,1,3,4,4,10,max,75777
2.1790352414865963,LeakyReLU,LeakyReLU,Sigmoid,64,256,0.05,0.05,False,128,2,4,0.00026153503008971335,1,4,5,1,10,set2set,1057281
2.211418576904985,LeakyReLU,ReLU,Sigmoid,32,128,0.0,0.0,True,128,2,4,0.00023220642274569082,1,4,4,3,10,max,282497
2.0865466865848323,LeakyReLU,LeakyReLU,Sigmoid,64,256,0.1,0.05,False,64,2,4,0.00040024592759538096,1,1,3,4,10,max,948481
2.170278743153713,ReLU,ReLU,Sigmoid,64,128,0.1,0.0,False,64,2,4,0.002650869312425201,1,1,3,2,10,all,265345
3.027343533078178,ReLU,ReLU,Sigmoid,32,256,0.1,0.05,False,256,2,4,0.0008949855924004265,1,2,3,2,10,max,989697
2.629940740397719,ReLU,ReLU,Sigmoid,64,256,0.1,0.0,False,64,2,4,0.003364737717424317,1,1,4,2,10,all,1055873
1.6138685172209974,LeakyReLU,ReLU,Sigmoid,64,128,0.1,0.05,False,64,2,4,0.0007462091905620962,1,3,2,2,10,max,223873
2.251707869230724,ReLU,ReLU,Sigmoid,32,128,0.1,0.05,False,256,2,4,0.0015509835317810664,1,2,5,3,10,all,463617
2.2416949428495814,ReLU,LeakyReLU,Sigmoid,32,256,0.1,0.0,False,64,2,4,0.0037383192080673567,1,1,4,1,10,max,990465
1.3775506141732952,LeakyReLU,ReLU,Sigmoid,64,256,0.1,0.0,False,256,2,4,0.000682323135188559,1,1,3,2,10,all,1186305
2.201232343667843,LeakyReLU,LeakyReLU,Sigmoid,64,256,0.1,0.05,False,64,2,4,0.0005197254434704153,1,3,3,3,10,max,944321
2.266572397751886,LeakyReLU,ReLU,Sigmoid,64,256,0.05,0.1,False,256,2,4,0.0005134929855965631,1,2,2,1,10,all,858113
2.2418376847368773,LeakyReLU,LeakyReLU,Sigmoid,64,256,0.1,0.05,False,64,2,4,0.0002762210126570317,1,1,3,2,10,max,940161
1.350562994597388,LeakyReLU,ReLU,Sigmoid,64,256,0.1,0.0,False,256,2,4,0.0012745971284048427,1,1,3,2,10,all,1186305
1.3333316894828295,LeakyReLU,ReLU,Sigmoid,64,256,0.1,0.0,False,256,2,4,0.0011299538918992072,1,1,3,2,10,all,1186305
1.3099853000679955,LeakyReLU,ReLU,Sigmoid,64,256,0.1,0.0,False,256,2,4,0.0014392026208643923,1,2,3,2,10,all,1186305
2.7126191932646955,LeakyReLU,ReLU,Sigmoid,64,256,0.1,0.0,False,256,2,4,0.0015659019020777493,1,2,2,3,10,all,1185537
2.0063597701612066,LeakyReLU,ReLU,Sigmoid,64,256,0.1,0.0,False,256,2,4,0.0012684830773108838,1,2,3,2,10,all,1186305
2.009465794582836,LeakyReLU,ReLU,Sigmoid,64,64,0.1,0.0,False,256,2,4,0.005342096452852712,1,3,3,1,10,all,59137
1.3346157291384995,LeakyReLU,ReLU,Sigmoid,64,256,0.0,0.0,True,256,2,4,0.0019748814096390475,1,2,2,2,10,all,1119745
2.638225884711156,LeakyReLU,ReLU,Sigmoid,64,256,0.0,0.0,True,256,2,4,0.0018976393673299297,1,2,2,3,10,all,1185537
1.3447127781930517,LeakyReLU,ReLU,Sigmoid,64,256,0.0,0.0,True,256,2,4,0.005032174544721676,1,3,2,1,10,all,858113
1.375084357427769,LeakyReLU,ReLU,Sigmoid,64,256,0.0,0.0,True,256,2,4,0.0008959312563886241,1,2,2,2,10,all,1119745
1.3619039168611902,LeakyReLU,ReLU,Sigmoid,64,256,0.0,0.0,True,256,2,4,0.0046924317085255155,1,3,2,1,10,all,858113
1.4096763126674245,LeakyReLU,ReLU,Sigmoid,64,256,0.0,0.0,True,256,2,4,0.006886749285044099,1,3,2,1,10,all,858113
1.5302377106224905,LeakyReLU,ReLU,Sigmoid,64,256,0.0,0.0,True,256,2,4,0.002312345809028806,1,3,2,1,10,all,858113
1.3151099442458543,LeakyReLU,ReLU,Sigmoid,64,256,0.0,0.0,True,256,2,4,0.0033437614816464807,1,2,2,2,10,all,1119745
1.3479642022828586,LeakyReLU,ReLU,Sigmoid,64,256,0.0,0.0,True,256,2,4,0.003311333877873053,1,2,2,2,10,all,1119745
2.159256563323443,LeakyReLU,ReLU,Sigmoid,64,64,0.05,0.0,True,256,2,4,0.001663391744681678,1,2,3,2,10,set2set,92161
2.3403621765433766,LeakyReLU,ReLU,Sigmoid,64,256,0.0,0.1,True,128,2,4,0.00258223474117788,1,2,4,2,10,all,1121537
3.30972189004304,LeakyReLU,ReLU,Sigmoid,64,256,0.0,0.0,True,256,2,4,0.0010804864927314666,1,2,3,2,10,set2set,1055233
1.760881231212225,LeakyReLU,ReLU,Sigmoid,64,64,0.05,0.1,True,256,2,4,0.0013864351801228263,1,1,2,3,10,all,186369
2.1531535636206143,LeakyReLU,ReLU,Sigmoid,32,256,0.0,0.0,True,128,2,4,0.0020394480263242684,1,2,3,2,10,all,1054977
1.358347048280669,LeakyReLU,ReLU,Sigmoid,64,256,0.0,0.0,True,256,2,4,0.004838987154741681,1,3,2,1,10,all,858113
1.3578149976788974,LeakyReLU,ReLU,Sigmoid,64,256,0.0,0.0,True,256,2,4,0.005650638948875,1,3,2,1,10,all,858113
2.071759057093839,LeakyReLU,ReLU,Sigmoid,64,256,0.0,0.0,True,256,2,4,0.009998094612651429,1,4,2,2,10,all,1119745
2.3500436353878897,LeakyReLU,ReLU,Sigmoid,64,256,0.0,0.0,True,256,2,4,0.0034295287382881973,1,2,2,2,10,set2set,988673
2.228440132053172,LeakyReLU,ReLU,Sigmoid,64,128,0.0,0.0,True,256,2,4,0.00292147935282291,1,3,2,4,10,all,478721
2.231217706301173,LeakyReLU,ReLU,Sigmoid,64,256,0.0,0.0,True,128,2,4,0.00406094885480565,1,2,3,3,10,all,1071489
2.6640292337683382,ReLU,ReLU,Sigmoid,32,64,0.05,0.1,True,256,2,4,0.007483605323841123,1,2,4,1,10,all,63489
1.3296882466214601,LeakyReLU,LeakyReLU,Sigmoid,64,256,0.0,0.0,False,256,2,4,0.0018050408936663418,1,1,2,2,10,all,1119745
2.1085957318055826,ReLU,LeakyReLU,Sigmoid,64,128,0.1,0.0,False,256,2,4,0.0018542885010413915,1,1,3,2,10,set2set,298497
2.2965697426287854,LeakyReLU,LeakyReLU,Sigmoid,64,256,0.1,0.0,False,256,2,4,0.00010488947437643643,1,1,5,2,10,all,1319425
1.336411963232228,LeakyReLU,LeakyReLU,Sigmoid,64,256,0.0,0.0,False,256,2,4,0.002521052766521937,1,1,2,2,10,all,1119745
1.357130770311981,LeakyReLU,LeakyReLU,Sigmoid,64,256,0.0,0.0,False,256,2,4,0.002377929447614275,1,1,2,2,10,all,1119745
2.0562665931514053,LeakyReLU,LeakyReLU,Sigmoid,64,256,0.0,0.0,False,256,2,4,0.0010859471394840138,1,1,2,2,10,all,1119745
2.040952534704912,LeakyReLU,LeakyReLU,Sigmoid,64,256,0.0,0.0,False,256,2,4,0.0007993907427568891,1,1,2,2,10,all,1119745
1.7083446224693393,LeakyReLU,LeakyReLU,Sigmoid,32,256,0.0,0.0,False,256,2,4,0.0014161714201849013,1,1,2,2,10,all,1119745
2.1873339522080344,LeakyReLU,LeakyReLU,Sigmoid,64,256,0.1,0.05,False,128,2,4,0.00290124529561727,1,1,3,2,10,all,1054977
2.7360769803406764,ReLU,LeakyReLU,Sigmoid,64,128,0.1,0.0,False,256,2,4,0.0006284852995211114,1,1,2,2,10,all,347137
2.1737868282638613,LeakyReLU,LeakyReLU,Sigmoid,64,256,0.0,0.1,False,64,2,4,0.0017443923217584515,1,1,3,2,10,max,940161
2.047964802286664,LeakyReLU,LeakyReLU,Sigmoid,32,256,0.05,0.0,False,256,2,4,0.0022652108127712237,1,2,2,3,10,all,1185537
2.608494307174057,LeakyReLU,LeakyReLU,Sigmoid,64,64,0.1,0.0,False,256,2,4,0.0009361231708988639,1,1,4,2,10,all,129281
1.5486190343489412,LeakyReLU,ReLU,Sigmoid,64,256,0.0,0.0,False,256,2,4,0.003996968424401456,1,2,2,2,10,all,1119745
2.036200254911282,LeakyReLU,ReLU,Sigmoid,64,256,0.0,0.0,False,256,2,4,0.0012785564911845832,1,4,2,2,10,all,1119745
2.6427492157357637,LeakyReLU,ReLU,Sigmoid,64,256,0.0,0.0,False,256,2,4,0.0060560635941795974,1,1,2,3,10,all,1185537
1.5312346938203594,LeakyReLU,ReLU,Sigmoid,64,256,0.0,0.0,True,256,2,4,0.0029925397102727996,1,3,2,1,10,all,858113
1.5096143733282559,LeakyReLU,LeakyReLU,Sigmoid,64,256,0.0,0.0,False,256,2,4,0.00209906260262545,1,2,2,2,10,all,1119745
2.4110778101155015,LeakyReLU,ReLU,Sigmoid,64,256,0.1,0.05,True,64,2,4,0.004488918358163204,1,1,3,4,10,max,948481
1.7191915429029307,ReLU,ReLU,Sigmoid,64,256,0.0,0.0,False,256,2,4,0.001637880118525424,1,2,2,1,10,all,858113
2.152636215335033,LeakyReLU,LeakyReLU,Sigmoid,64,256,0.0,0.0,True,256,2,4,0.0025324968755506888,1,3,3,3,10,set2set,1121025
1.653286799055631,LeakyReLU,ReLU,Sigmoid,64,256,0.1,0.0,False,256,2,4,0.0011967301561544475,1,2,2,2,10,all,1119745
2.207824091442296,LeakyReLU,ReLU,Sigmoid,64,128,0.0,0.0,True,128,2,4,0.0035298983068150396,1,1,3,2,10,all,298241
2.049364899758433,LeakyReLU,ReLU,Sigmoid,64,256,0.0,0.0,True,256,2,4,0.0014774238531139775,1,2,2,2,10,all,1119745
1.326978434304722,LeakyReLU,ReLU,Sigmoid,64,256,0.0,0.0,True,256,2,4,0.0032358966247712923,1,2,2,2,10,all,1119745
2.0661436607603165,LeakyReLU,ReLU,Sigmoid,64,256,0.0,0.0,True,256,2,4,0.0019300674670280538,1,2,2,2,10,all,1119745
1.6446161690305492,LeakyReLU,ReLU,Sigmoid,64,256,0.0,0.0,True,256,2,4,0.0031216033580525357,1,2,2,2,10,all,1119745
1.6551549942767034,LeakyReLU,ReLU,Sigmoid,64,256,0.0,0.0,True,256,2,4,0.003956813225112798,1,2,2,2,10,all,1119745
2.481879170312256,LeakyReLU,ReLU,Sigmoid,64,256,0.05,0.1,True,256,2,4,0.00017352212066349556,1,2,2,1,10,all,858113
2.073818891263399,LeakyReLU,ReLU,Sigmoid,32,256,0.1,0.05,False,256,2,4,0.002239675687189772,1,3,2,2,10,all,1119745
2.0354316205274863,LeakyReLU,ReLU,Sigmoid,64,64,0.0,0.0,True,64,2,4,0.0027027287042041973,1,1,2,2,10,max,58753
1.7238778633172396,LeakyReLU,ReLU,Sigmoid,64,256,0.0,0.0,True,256,2,4,0.004986147218276914,1,2,2,2,10,all,1119745
2.0598140781531566,ReLU,LeakyReLU,Sigmoid,64,256,0.1,0.0,False,256,2,4,0.006550178251224563,1,3,3,1,10,all,924673
1.6259365250341227,LeakyReLU,ReLU,Sigmoid,64,256,0.0,0.0,True,256,2,4,0.003263979279995245,1,2,2,2,10,all,1119745
1.5145694742925833,LeakyReLU,ReLU,Sigmoid,64,256,0.0,0.0,True,256,2,4,0.003663041913774739,1,2,2,2,10,all,1119745
1.6516154664950293,LeakyReLU,ReLU,Sigmoid,64,256,0.0,0.0,True,256,2,4,0.004303575636936076,1,2,2,2,10,all,1119745
2.108499678920527,LeakyReLU,ReLU,Sigmoid,64,256,0.0,0.0,True,256,2,4,0.0017097638080437996,1,2,5,2,10,set2set,1188353
1.2950032859063538,LeakyReLU,ReLU,Sigmoid,64,256,0.0,0.0,True,256,2,4,0.0020068443970869968,1,1,2,2,10,all,1119745
1.3269194708984406,LeakyReLU,ReLU,Sigmoid,64,256,0.0,0.0,True,256,2,4,0.0025195185112289924,1,1,2,2,10,all,1119745
1.567061365139289,LeakyReLU,ReLU,Sigmoid,64,256,0.0,0.0,True,256,2,4,0.002529978131300886,1,1,2,2,10,all,1119745
2.3629731916990435,LeakyReLU,ReLU,Sigmoid,64,256,0.0,0.0,False,128,2,4,0.0020139992109980717,1,1,2,2,10,all,988417
2.7285428613912863,LeakyReLU,LeakyReLU,Sigmoid,64,128,0.1,0.0,True,256,2,4,0.0010088750702672983,1,1,2,2,10,all,347137
2.4080337456992416,LeakyReLU,ReLU,Sigmoid,32,256,0.05,0.1,False,256,2,4,0.0015047621637491017,1,1,4,2,10,all,1252865
1.321892174174551,LeakyReLU,ReLU,Sigmoid,64,256,0.0,0.0,True,256,2,4,0.001827653614550449,1,1,2,2,10,all,1119745
1.5019904582715424,LeakyReLU,ReLU,Sigmoid,64,256,0.0,0.0,True,256,2,4,0.0018016263900106535,1,1,2,2,10,all,1119745
2.0383586978814643,LeakyReLU,ReLU,Sigmoid,64,256,0.0,0.0,True,256,2,4,0.0013182351911820965,1,1,2,2,10,all,1119745
1.6621047341432729,LeakyReLU,ReLU,Sigmoid,64,256,0.0,0.0,True,256,2,4,0.0021756284667673793,1,1,2,2,10,all,1119745
1.3418312419633396,LeakyReLU,ReLU,Sigmoid,64,256,0.0,0.0,True,256,2,4,0.0027278224029362516,1,1,2,2,10,all,1119745
2.2434068302639196,LeakyReLU,ReLU,Sigmoid,64,64,0.0,0.0,True,256,2,4,0.0011864558954321333,1,1,2,2,10,all,120577
2.0307254974470763,LeakyReLU,LeakyReLU,Sigmoid,64,256,0.0,0.0,False,256,2,4,0.000811231652038199,1,1,2,2,10,all,1119745
1.9119881000675139,ReLU,ReLU,Sigmoid,64,256,0.1,0.05,True,64,2,4,0.002432542454793193,1,1,2,2,10,max,873601
2.151291357200654,LeakyReLU,ReLU,Sigmoid,64,256,0.0,0.0,False,256,2,4,0.001932250761462409,1,1,3,2,10,all,1186305
2.0644210366929165,LeakyReLU,LeakyReLU,Sigmoid,64,256,0.0,0.0,True,256,2,4,0.0014398723512055172,1,1,4,2,10,all,1252865
1.5132052058079204,LeakyReLU,ReLU,Sigmoid,64,256,0.0,0.0,True,256,2,4,0.0026310246434296564,1,1,2,2,10,all,1119745
2.0386215976027193,LeakyReLU,ReLU,Sigmoid,64,256,0.0,0.0,True,256,2,4,0.0027392984793551192,1,1,2,2,10,all,1119745
2.0244280664158647,LeakyReLU,ReLU,Sigmoid,64,256,0.0,0.0,True,256,2,4,0.002313297269650553,1,1,2,2,10,all,1119745
1.640388886948101,LeakyReLU,ReLU,Sigmoid,64,256,0.0,0.0,True,256,2,4,0.0015766261405940512,1,1,2,2,10,all,1119745
2.2059516989793932,LeakyReLU,ReLU,Sigmoid,64,256,0.0,0.0,True,256,2,4,0.003166336303032606,1,1,2,2,10,set2set,988673
1.3002800218394546,LeakyReLU,ReLU,Sigmoid,64,256,0.1,0.0,False,256,2,4,0.0020876732789651717,1,1,2,2,10,all,1119745
1.4765419112365754,LeakyReLU,ReLU,Sigmoid,64,256,0.1,0.0,False,256,2,4,0.0020843211720404753,1,1,2,2,10,all,1119745
2.1091184271652192,LeakyReLU,LeakyReLU,Sigmoid,32,128,0.1,0.0,False,128,2,4,0.0017926852635026214,1,1,2,2,10,all,281345
2.122643845491722,LeakyReLU,ReLU,Sigmoid,64,256,0.1,0.1,False,256,2,4,0.0016062016585783603,1,1,3,2,10,all,1186305
2.031928160884341,LeakyReLU,ReLU,Sigmoid,64,256,0.1,0.0,False,256,2,4,0.0018963810105401234,1,1,2,2,10,all,1119745
1.3276547379181034,LeakyReLU,ReLU,Sigmoid,64,256,0.1,0.0,False,256,2,4,0.0028685071827826724,1,1,2,2,10,all,1119745
1.2886360827528063,LeakyReLU,ReLU,Sigmoid,64,256,0.1,0.0,False,256,2,4,0.002909964923246103,1,1,2,2,10,all,1119745
2.0272624311877077,LeakyReLU,ReLU,Sigmoid,64,256,0.1,0.0,False,256,2,4,0.0029945291220595457,1,1,2,2,10,all,1119745
1.30828471652797,LeakyReLU,ReLU,Sigmoid,64,256,0.1,0.0,False,256,2,4,0.0035157663639113538,1,1,2,2,10,all,1119745
1.887574938721344,LeakyReLU,ReLU,Sigmoid,64,256,0.1,0.0,False,256,2,4,0.0036948503041679343,1,1,2,2,10,all,1119745
1.3196995338944137,LeakyReLU,ReLU,Sigmoid,64,256,0.1,0.0,False,256,2,4,0.0034204744744647706,1,1,2,2,10,all,1119745
1.8674929733159111,LeakyReLU,ReLU,Sigmoid,64,256,0.1,0.0,False,256,2,4,0.004279938155894881,1,1,2,2,10,all,1119745
2.3935491955671155,ReLU,ReLU,Sigmoid,64,64,0.1,0.0,False,256,2,4,0.003295232560032605,1,1,2,2,10,all,120577
1.9219168678658907,LeakyReLU,ReLU,Sigmoid,64,256,0.1,0.05,False,256,2,4,0.0038107639039251656,1,1,2,2,10,max,923137
1.6412587595767663,LeakyReLU,ReLU,Sigmoid,64,256,0.1,0.0,False,256,2,4,0.005375881426394732,1,1,2,2,10,all,1119745
1.3104007117083816,LeakyReLU,ReLU,Sigmoid,64,256,0.1,0.0,False,256,2,4,0.002828830467621934,1,1,2,2,10,all,1119745
1.6800345929919696,LeakyReLU,ReLU,Sigmoid,64,256,0.1,0.0,False,256,2,4,0.0030486390114933793,1,1,2,2,10,all,1119745
1.356130467086542,LeakyReLU,ReLU,Sigmoid,64,256,0.1,0.0,False,256,2,4,0.002876520834626953,1,1,2,2,10,all,1119745
1.8292387934004675,LeakyReLU,ReLU,Sigmoid,64,256,0.1,0.0,False,256,2,4,0.003498824636106004,1,1,2,2,10,all,1119745
2.104334318246998,LeakyReLU,ReLU,Sigmoid,64,256,0.1,0.0,False,64,2,4,0.0024573831041678432,1,1,2,2,10,all,922753
1.4705128486527772,LeakyReLU,ReLU,Sigmoid,64,256,0.1,0.0,False,256,2,4,0.0022303051081705443,1,1,2,2,10,all,1119745
1.4077111294523614,LeakyReLU,ReLU,Sigmoid,64,256,0.1,0.0,False,256,2,4,0.003438286985267591,1,1,2,2,10,all,1119745
27.633414573356752,LeakyReLU,ReLU,Sigmoid,64,256,0.1,0.0,False,256,2,4,0.004599195480851876,1,1,2,2,10,set2set,988673
1.980314244989489,LeakyReLU,ReLU,Sigmoid,32,256,0.1,0.0,False,256,2,4,0.0028215970890602456,1,1,2,2,10,all,1119745
1.3187765755125733,LeakyReLU,ReLU,Sigmoid,64,256,0.1,0.0,False,256,2,4,0.004036916474295668,1,1,2,2,10,all,1119745
1.641208099292927,LeakyReLU,ReLU,Sigmoid,64,256,0.1,0.0,False,256,2,4,0.003867289739433145,1,1,2,2,10,all,1119745
1.5938100919860307,LeakyReLU,ReLU,Sigmoid,64,256,0.1,0.0,False,256,2,4,0.002102065603008693,1,1,2,2,10,all,1119745
1.5823041305678789,LeakyReLU,ReLU,Sigmoid,64,256,0.1,0.0,False,256,2,4,0.0040908397868308,1,1,2,2,10,all,1119745
1.354616781482931,LeakyReLU,ReLU,Sigmoid,64,256,0.1,0.0,False,256,2,4,0.0023788309185851656,1,1,2,2,10,all,1119745
1.3492865291286686,LeakyReLU,ReLU,Sigmoid,64,256,0.1,0.0,False,256,2,4,0.0029577565135296613,1,1,2,2,10,all,1119745
2.0827728392647917,LeakyReLU,ReLU,Sigmoid,64,128,0.05,0.0,False,128,2,4,0.0033215719630968793,1,1,2,2,10,all,281345
1.8583118957085687,LeakyReLU,ReLU,Sigmoid,64,256,0.1,0.0,False,256,2,4,0.0026082449159836978,1,1,2,2,10,all,1119745
1.355702317151867,LeakyReLU,ReLU,Sigmoid,64,256,0.1,0.0,False,256,2,4,0.003192980780149424,1,1,2,2,10,all,1119745
2.3723507137572177,ReLU,ReLU,Sigmoid,64,256,0.1,0.1,False,256,2,4,0.00030861199558938386,1,1,2,2,10,all,1119745
2.2237335252957267,LeakyReLU,ReLU,Sigmoid,64,64,0.1,0.0,False,256,2,4,0.002260538871139823,1,1,2,2,10,all,120577
1.6054457196446716,LeakyReLU,ReLU,Sigmoid,64,256,0.1,0.0,False,256,2,4,0.0017187017084730426,1,1,2,2,10,all,1119745
2.06996395524408,LeakyReLU,ReLU,Sigmoid,64,256,0.1,0.0,False,256,2,4,0.0014003587757640238,1,1,2,2,10,all,1119745
2.0130150293717617,LeakyReLU,ReLU,Sigmoid,64,256,0.1,0.0,False,256,2,4,0.0011975082626848842,1,1,3,2,10,all,1186305
2.0419221732948647,LeakyReLU,ReLU,Sigmoid,64,256,0.1,0.0,False,256,2,4,0.001043399897591445,1,1,4,2,10,all,1252865
1.5959902093058727,LeakyReLU,ReLU,Sigmoid,64,256,0.1,0.0,False,256,2,4,0.003564067309057867,1,1,2,2,10,all,1119745
1.6312222910709069,LeakyReLU,ReLU,Sigmoid,64,256,0.05,0.05,False,256,2,4,0.004828780015625526,1,1,2,2,10,max,923137
2.194110455571628,LeakyReLU,ReLU,Sigmoid,64,256,0.1,0.0,False,64,2,4,0.004325731733257914,1,4,2,2,10,all,922753
1.6455563629259828,LeakyReLU,ReLU,Sigmoid,64,256,0.1,0.0,False,256,2,4,0.002017764528859844,1,1,2,2,10,all,1119745
2.167466503674867,LeakyReLU,ReLU,Sigmoid,64,256,0.1,0.0,True,256,2,4,0.0028122596620103264,1,1,3,2,10,all,1186305
4.0568319187789665,LeakyReLU,ReLU,Sigmoid,32,256,0.1,0.0,False,256,2,4,0.002518802853168581,1,1,2,2,10,set2set,988673
1.655954872975584,LeakyReLU,ReLU,Sigmoid,64,256,0.0,0.0,True,256,2,4,0.0018985205886028732,1,2,2,2,10,all,1119745
2.013372623773872,LeakyReLU,ReLU,Sigmoid,64,256,0.0,0.0,True,256,2,4,0.0015460905257153033,1,2,2,2,10,all,1119745
1.6355887431590284,LeakyReLU,ReLU,Sigmoid,64,256,0.0,0.0,True,256,2,4,0.0016702291381514584,1,2,2,2,10,all,1119745
2.0321179550202166,LeakyReLU,ReLU,Sigmoid,64,256,0.0,0.0,True,256,2,4,0.0013303759426346292,1,2,2,2,10,all,1119745
1.4569423562679134,LeakyReLU,ReLU,Sigmoid,64,256,0.0,0.0,True,256,2,4,0.0021130013363057274,1,2,2,2,10,all,1119745
1.4588586157951198,LeakyReLU,ReLU,Sigmoid,64,256,0.1,0.0,True,256,2,4,0.003092850399318315,1,2,2,2,10,all,1119745
2.0208217123004255,LeakyReLU,ReLU,Sigmoid,64,256,0.0,0.0,False,256,2,4,0.0018421271600323934,1,1,2,2,10,all,1119745
1.9007126706056907,LeakyReLU,ReLU,Sigmoid,64,128,0.1,0.0,True,128,2,4,0.0037782182562950553,1,1,2,2,10,all,281345
2.027187438529046,LeakyReLU,ReLU,Sigmoid,64,256,0.0,0.0,False,256,2,4,0.0023200105203597084,1,1,2,2,10,all,1119745
2.119581748960448,ReLU,ReLU,Sigmoid,64,256,0.1,0.1,True,256,2,4,0.0009353965516050359,1,2,2,2,10,all,1119745
1.311964038942681,LeakyReLU,LeakyReLU,Sigmoid,64,256,0.0,0.0,False,256,2,4,0.002660409195242997,1,1,2,2,10,all,1119745
2.0560127943754196,LeakyReLU,LeakyReLU,Sigmoid,64,256,0.0,0.0,False,256,2,4,0.0027145367575525676,1,1,2,2,10,all,1119745
1.3927457015045355,LeakyReLU,LeakyReLU,Sigmoid,64,256,0.0,0.0,False,256,2,4,0.003315036612576149,1,1,2,2,10,all,1119745
1.299684302484403,LeakyReLU,LeakyReLU,Sigmoid,64,256,0.0,0.0,False,256,2,4,0.0026511100676009265,1,1,2,2,10,all,1119745
2.036619983979913,LeakyReLU,LeakyReLU,Sigmoid,64,256,0.0,0.0,False,256,2,4,0.0029297831859019055,1,1,2,2,10,all,1119745
1.2944218413751634,LeakyReLU,LeakyReLU,Sigmoid,64,256,0.0,0.0,False,256,2,4,0.0025450493872662535,1,1,2,2,10,all,1119745
1.2822074953649865,LeakyReLU,LeakyReLU,Sigmoid,64,256,0.0,0.0,False,256,2,4,0.002559269707341639,1,1,2,2,10,all,1119745
1.3673217477368527,LeakyReLU,LeakyReLU,Sigmoid,64,256,0.0,0.0,False,256,2,4,0.002626416478546276,1,1,2,2,10,all,1119745
1.4643765697713758,LeakyReLU,LeakyReLU,Sigmoid,64,256,0.0,0.0,False,256,2,4,0.0024542121818392666,1,1,2,2,10,all,1119745
1.3392487314880872,LeakyReLU,LeakyReLU,Sigmoid,64,256,0.0,0.0,False,256,2,4,0.0031505848824603384,1,1,2,2,10,all,1119745
1.5492621819015409,LeakyReLU,LeakyReLU,Sigmoid,64,256,0.0,0.0,False,256,2,4,0.002187654985599268,1,1,2,2,10,all,1119745
1.8249109314113368,LeakyReLU,LeakyReLU,Sigmoid,64,256,0.0,0.0,False,256,2,4,0.0028921660416841443,1,1,2,2,10,all,1119745
2.0102427709298056,LeakyReLU,LeakyReLU,Sigmoid,64,256,0.0,0.0,False,256,2,4,0.0035605846008901253,1,1,2,2,10,all,1119745
1.6032207788991146,LeakyReLU,LeakyReLU,Sigmoid,64,256,0.0,0.0,False,256,2,4,0.002416410289829428,1,1,2,2,10,all,1119745
2.1633110862286364,LeakyReLU,LeakyReLU,Sigmoid,64,64,0.0,0.0,False,256,2,4,0.0026945207996561067,1,1,2,2,10,all,120577
1.8748559348407339,LeakyReLU,LeakyReLU,Sigmoid,64,256,0.0,0.0,False,256,2,4,0.003980745492665374,1,1,2,2,10,all,1119745
1.614269497941752,LeakyReLU,LeakyReLU,Sigmoid,64,256,0.0,0.0,False,256,2,4,0.002007550214176046,1,1,2,2,10,all,1119745
2.0758089540434663,LeakyReLU,LeakyReLU,Sigmoid,64,256,0.05,0.05,False,256,2,4,0.003154701775787686,1,1,2,2,10,max,923137
1.9988619624102701,LeakyReLU,LeakyReLU,Sigmoid,64,256,0.0,0.0,False,64,2,4,0.0022994232486577156,1,1,2,2,10,all,922753
2.1399638345007035,LeakyReLU,LeakyReLU,Sigmoid,32,256,0.0,0.0,False,256,2,4,0.0026231277310003144,1,1,2,2,10,all,1119745
2.1000954303585115,LeakyReLU,LeakyReLU,Sigmoid,64,256,0.1,0.0,False,256,2,4,0.0035674295122479003,1,1,5,2,10,all,1319425
1.7142269371962937,LeakyReLU,LeakyReLU,Sigmoid,64,256,0.1,0.0,False,256,2,4,0.0030518676177981405,1,1,2,2,10,all,1119745
1.2741464264080173,LeakyReLU,LeakyReLU,Sigmoid,64,256,0.1,0.0,False,256,2,4,0.002819853854562222,1,1,2,2,10,all,1119745
2.0075205229833477,LeakyReLU,LeakyReLU,Sigmoid,64,256,0.1,0.0,False,256,2,4,0.002797886540755657,1,1,2,2,10,all,1119745
1.2851899373726767,LeakyReLU,LeakyReLU,Sigmoid,64,256,0.0,0.0,False,256,2,4,0.002428636864170966,1,1,2,2,10,all,1119745
1.813232368865951,LeakyReLU,LeakyReLU,Sigmoid,64,256,0.1,0.0,False,256,2,4,0.002367666690829296,1,1,2,2,10,all,1119745
2.153664432099608,LeakyReLU,LeakyReLU,Sigmoid,64,256,0.0,0.0,False,256,2,4,0.0025476727682645114,1,1,2,2,10,set2set,988673
1.325284789575905,LeakyReLU,LeakyReLU,Sigmoid,64,256,0.1,0.0,False,256,2,4,0.003279031395654614,1,1,2,2,10,all,1119745
1.6151679788456588,LeakyReLU,LeakyReLU,Sigmoid,64,256,0.0,0.0,False,256,2,4,0.0033261909616933007,1,1,2,2,10,all,1119745
2.019831114127988,LeakyReLU,LeakyReLU,Sigmoid,64,256,0.1,0.0,False,256,2,4,0.003815942195758806,1,1,2,2,10,all,1119745
2.2356983276664235,LeakyReLU,LeakyReLU,Sigmoid,64,256,0.1,0.0,False,256,2,4,0.002947698707868326,1,1,2,4,10,all,1251329
1.3458349870853736,LeakyReLU,LeakyReLU,Sigmoid,64,256,0.1,0.0,False,256,2,4,0.003407378262275009,1,1,2,2,10,all,1119745
1.800764729742144,LeakyReLU,LeakyReLU,Sigmoid,64,256,0.1,0.0,False,256,2,4,0.0028009136036611323,1,1,2,2,10,all,1119745
1.4448848151769795,LeakyReLU,LeakyReLU,Sigmoid,64,256,0.1,0.0,False,256,2,4,0.0021291989311082037,1,1,2,2,10,all,1119745
2.023659143291536,LeakyReLU,LeakyReLU,Sigmoid,64,256,0.1,0.0,False,256,2,4,0.0025750116207158727,1,1,2,2,10,all,1119745
1.591681197774215,LeakyReLU,ReLU,Sigmoid,64,256,0.0,0.0,False,256,2,4,0.0031309057821006354,1,1,2,2,10,all,1119745
2.038282266405762,LeakyReLU,LeakyReLU,Sigmoid,64,256,0.1,0.0,False,256,2,4,0.004193575791463159,1,1,2,2,10,all,1119745
2.363002207924108,ReLU,ReLU,Sigmoid,64,256,0.0,0.0,False,128,2,4,0.002416772864802385,1,1,2,2,10,all,988417
1.9915290299009105,LeakyReLU,ReLU,Sigmoid,64,128,0.1,0.1,False,256,2,4,0.0027627309976041878,1,1,2,2,10,all,347137
