value,params_act_gnn,params_act_mlp,params_activation_out,params_batch_size,params_dim_gnn_embedding,params_dropout_gnn,params_dropout_mlp,params_gnn_norm,params_hidden_size_mlp,params_in_edge_channels,params_in_node_channels,params_lr,params_num_classes,params_num_gnn_head,params_num_gnn_layers,params_num_layers_mlp,params_processing_steps_readout,params_readout_layer,user_attrs_complexity
1.4460559560627233,ReLU,ReLU,Sigmoid,64,64,0.05,0.1,False,128,0,4,0.001197059243743331,1,2,5,4,10,set2set,117249
1.7679867119085593,ReLU,LeakyReLU,Sigmoid,64,256,0.1,0.05,True,128,0,4,0.003397668751552087,1,4,2,2,10,set2set,922881
1.8093070109359553,LeakyReLU,LeakyReLU,Sigmoid,32,256,0.1,0.05,False,64,0,4,0.0005738357169571344,1,3,2,4,10,set2set,898305
1.4730077955077907,ReLU,ReLU,Sigmoid,32,256,0.0,0.05,False,64,0,4,0.0030688326279160573,1,3,4,3,10,max,1010881
1.2454277135309626,LeakyReLU,ReLU,Sigmoid,32,256,0.0,0.0,True,256,0,4,0.00033669247844386746,1,3,3,4,10,all,1317889
2.341470266951889,ReLU,LeakyReLU,Sigmoid,32,128,0.0,0.05,False,256,0,4,0.0002977614572035048,1,2,5,2,10,set2set,332289
2.4047720920844156,LeakyReLU,LeakyReLU,Sigmoid,64,128,0.0,0.05,False,128,0,4,0.0009445999385578956,1,2,5,1,10,all,266753
2.5973581290635908,ReLU,ReLU,Sigmoid,64,64,0.1,0.05,True,128,0,4,0.0005990185384951024,1,3,3,2,10,set2set,75521
1.1678680069133884,ReLU,LeakyReLU,Sigmoid,32,256,0.0,0.0,True,64,0,4,0.0014832025260876763,1,2,4,3,10,all,1060033
1.2490845156497643,LeakyReLU,LeakyReLU,Sigmoid,32,128,0.1,0.05,True,128,0,4,0.00019971292870310368,1,3,5,2,10,max,282881
2.4672084890428136,ReLU,LeakyReLU,Sigmoid,32,256,0.05,0.0,True,64,0,4,0.008116534064583512,1,1,4,3,10,all,1060033
1.9325301954980756,LeakyReLU,ReLU,Sigmoid,32,256,0.0,0.0,True,256,0,4,0.00014830257325818761,1,1,3,4,10,all,1317889
1.2719430503298024,LeakyReLU,ReLU,Sigmoid,32,256,0.0,0.0,True,256,0,4,0.0017442136727544133,1,4,3,3,10,all,1252097
1.1359856605041223,LeakyReLU,ReLU,Sigmoid,32,256,0.0,0.0,True,256,0,4,0.0003645252690720163,1,2,4,4,10,all,1384449
2.2034663318610583,LeakyReLU,LeakyReLU,Sigmoid,32,256,0.0,0.0,True,64,0,4,0.00010060372746157406,1,1,4,3,10,all,1060033
2.1984607477168567,ReLU,ReLU,Sigmoid,32,64,0.0,0.1,True,64,0,4,0.002478314642991006,1,2,4,4,10,all,88065
27.6068784291627,ReLU,LeakyReLU,Sigmoid,32,256,0.05,0.0,True,256,0,4,0.006602430536891363,1,2,4,3,10,all,1318657
2.222897847167781,LeakyReLU,ReLU,Sigmoid,32,256,0.0,0.0,True,64,0,4,0.0005829125976960647,1,1,4,1,10,max,990465
1.5923414904563153,ReLU,LeakyReLU,Sigmoid,64,64,0.0,0.0,True,256,0,4,0.000886191990504448,1,2,3,4,10,all,256513
1.2607931199132418,LeakyReLU,ReLU,Sigmoid,32,128,0.05,0.1,True,64,0,4,0.00030391726961308876,1,1,5,3,10,all,303297
2.9319589543538016,ReLU,ReLU,Sigmoid,32,256,0.0,0.0,True,256,0,4,0.0049152739413239445,1,2,4,4,10,max,1187841
1.2502997141392505,LeakyReLU,ReLU,Sigmoid,32,256,0.0,0.0,True,256,0,4,0.00032652390979666786,1,3,3,4,10,all,1317889
2.1596722011683416,LeakyReLU,ReLU,Sigmoid,32,256,0.0,0.0,True,256,0,4,0.0016395657605466673,1,3,2,4,10,all,1251329
2.378342059792065,LeakyReLU,ReLU,Sigmoid,32,256,0.0,0.0,True,256,0,4,0.0004619187679111706,1,2,3,3,10,all,1252097
1.7867018392340082,LeakyReLU,ReLU,Sigmoid,32,256,0.0,0.0,True,256,0,4,0.0001993501079521684,1,4,4,4,10,all,1384449
2.0864902172909408,LeakyReLU,ReLU,Sigmoid,32,256,0.0,0.0,True,256,0,4,0.0004178785507705036,1,3,3,3,10,all,1252097
1.1441756894842523,LeakyReLU,LeakyReLU,Sigmoid,32,256,0.0,0.1,True,64,0,4,0.0007198813528577521,1,2,4,4,10,all,1064193
2.195870257791926,LeakyReLU,LeakyReLU,Sigmoid,64,128,0.1,0.1,False,64,0,4,0.0013603266367727628,1,2,4,4,10,all,290561
2.2628393617809794,ReLU,LeakyReLU,Sigmoid,32,64,0.0,0.1,True,64,0,4,0.0007686472019087742,1,2,4,3,10,all,83905
2.305615753912535,ReLU,LeakyReLU,Sigmoid,64,256,0.05,0.1,False,64,0,4,0.0011774667280728586,1,1,5,4,10,max,1081601
2.196266805050803,LeakyReLU,LeakyReLU,Sigmoid,32,64,0.05,0.1,True,64,0,4,0.0018894343285284431,1,2,5,2,10,set2set,75905
2.0403236465864496,LeakyReLU,LeakyReLU,Sigmoid,32,256,0.0,0.1,True,64,0,4,0.0003998785642498549,1,3,4,4,10,all,1064193
2.2081889177932115,LeakyReLU,ReLU,Sigmoid,32,256,0.0,0.0,True,128,0,4,0.00021103026301038156,1,2,3,4,10,all,1088001
2.2762046285340043,LeakyReLU,LeakyReLU,Sigmoid,32,256,0.0,0.0,True,256,0,4,0.0006655257810142932,1,2,2,4,10,all,1251329
1.3111557129953728,LeakyReLU,ReLU,Sigmoid,32,256,0.0,0.1,True,64,0,4,0.0011846014008648033,1,3,4,4,10,all,1064193
2.147941287423744,LeakyReLU,LeakyReLU,Sigmoid,32,256,0.1,0.0,False,256,0,4,0.0004762066846480837,1,4,4,3,10,set2set,1187585
2.0475329307259105,ReLU,LeakyReLU,Sigmoid,64,256,0.0,0.1,True,64,0,4,0.0026962437274782383,1,2,3,4,10,all,997633
2.263015623463959,LeakyReLU,ReLU,Sigmoid,32,256,0.0,0.0,False,128,0,4,0.0002528094761824959,1,3,2,1,10,set2set,857601
3.010872092891912,ReLU,LeakyReLU,Sigmoid,32,128,0.1,0.05,True,256,0,4,0.0038921629520326188,1,3,5,4,10,all,529409
2.0803149630788895,LeakyReLU,ReLU,Sigmoid,64,256,0.0,0.05,False,128,0,4,0.0007670489957602624,1,2,3,3,10,max,973185
2.151743950413876,ReLU,LeakyReLU,Sigmoid,32,256,0.0,0.0,True,64,0,4,0.00015422386741485833,1,3,4,2,10,set2set,1023105
2.1899291086392325,LeakyReLU,LeakyReLU,Sigmoid,32,128,0.1,0.05,True,128,0,4,0.00016271655668005438,1,3,5,2,10,max,282881
2.3128020822024737,LeakyReLU,LeakyReLU,Sigmoid,32,128,0.1,0.05,True,128,0,4,0.0001138530456140884,1,3,5,2,10,max,282881
2.131387247902448,LeakyReLU,LeakyReLU,Sigmoid,32,128,0.1,0.05,True,128,0,4,0.00024782816746476256,1,4,5,2,10,max,282881
2.211412113220965,LeakyReLU,LeakyReLU,Sigmoid,32,128,0.1,0.05,True,128,0,4,0.0003148882995482715,1,2,4,1,10,max,249473
2.0771051786962103,LeakyReLU,LeakyReLU,Sigmoid,32,128,0.1,0.05,True,128,0,4,0.00037409735863462313,1,3,4,2,10,all,315137
2.5259687475493697,LeakyReLU,LeakyReLU,Sigmoid,32,64,0.0,0.0,True,64,0,4,0.00021759608703942463,1,2,3,3,10,max,67265
2.087840781592932,ReLU,ReLU,Sigmoid,32,256,0.05,0.0,True,256,0,4,0.0005632836488669295,1,1,5,2,10,all,1319425
1.505931683739678,LeakyReLU,LeakyReLU,Sigmoid,32,128,0.0,0.05,True,64,0,4,0.0021600406609100413,1,3,4,4,10,all,290561
2.153291937757711,ReLU,ReLU,Sigmoid,64,256,0.1,0.1,True,256,0,4,0.0009344073594217473,1,2,3,3,10,all,1252097
2.1593706417279166,LeakyReLU,ReLU,Sigmoid,32,256,0.0,0.0,True,128,0,4,0.0014552046200594223,1,2,4,4,10,max,1056257
1.8686493215013722,LeakyReLU,ReLU,Sigmoid,32,256,0.0,0.0,True,256,0,4,0.00034416165008605703,1,3,3,4,10,all,1317889
1.7022459868524895,LeakyReLU,ReLU,Sigmoid,32,256,0.0,0.0,True,256,0,4,0.0002672885926934139,1,3,3,4,10,all,1317889
1.259432873032132,LeakyReLU,ReLU,Sigmoid,32,256,0.0,0.0,True,256,0,4,0.0004947036762280964,1,3,3,4,10,all,1317889
1.8312682670647982,LeakyReLU,ReLU,Sigmoid,32,256,0.0,0.0,True,256,0,4,0.00018333407691929039,1,4,3,4,10,all,1317889
2.656516839246281,LeakyReLU,ReLU,Sigmoid,32,256,0.0,0.0,True,256,0,4,0.0001333430105230145,1,3,2,3,10,all,1185537
1.5634911446297755,LeakyReLU,ReLU,Sigmoid,32,64,0.0,0.0,True,256,0,4,0.0006894495230909682,1,3,4,4,10,all,260865
2.052242655734547,ReLU,LeakyReLU,Sigmoid,32,256,0.05,0.0,False,64,0,4,0.00031647133693384863,1,2,3,4,10,all,997633
1.1715097058503354,LeakyReLU,ReLU,Sigmoid,32,256,0.0,0.1,True,256,0,4,0.0010557972512332662,1,2,4,4,10,all,1384449
2.161192768909892,LeakyReLU,LeakyReLU,Sigmoid,32,256,0.0,0.1,True,256,0,4,0.0008323158566866648,1,2,4,3,10,set2set,1187585
2.661386038924827,ReLU,ReLU,Sigmoid,64,128,0.0,0.1,True,64,0,4,0.0011286874732468245,1,1,4,2,10,all,282241
1.2329205137784365,LeakyReLU,ReLU,Sigmoid,32,256,0.0,0.1,True,256,0,4,0.0014986052158401076,1,2,4,4,10,all,1384449
2.105086709632248,LeakyReLU,ReLU,Sigmoid,32,256,0.0,0.1,True,256,0,4,0.0015037308073925478,1,2,4,4,10,all,1384449
2.07191075409045,LeakyReLU,ReLU,Sigmoid,32,256,0.0,0.1,True,256,0,4,0.0010045447240646771,1,2,4,4,10,all,1384449
2.0647327880390356,LeakyReLU,ReLU,Sigmoid,32,256,0.0,0.1,True,256,0,4,0.0018660465491288688,1,2,4,4,10,all,1384449
2.002136320608561,LeakyReLU,ReLU,Sigmoid,32,256,0.0,0.1,True,256,0,4,0.0012990580404387013,1,2,4,4,10,all,1384449
2.0000136743803494,LeakyReLU,ReLU,Sigmoid,32,256,0.0,0.1,True,64,0,4,0.0010237011265775192,1,2,4,4,10,all,1064193
2.1779317113219716,LeakyReLU,LeakyReLU,Sigmoid,32,64,0.0,0.1,True,256,0,4,0.0022060645120569686,1,2,5,4,10,all,265217
3.0892088427895406,LeakyReLU,ReLU,Sigmoid,32,256,0.05,0.1,False,256,0,4,0.003399404990185171,1,2,4,4,10,max,1187841
1.7801060297938645,ReLU,LeakyReLU,Sigmoid,32,256,0.1,0.1,True,64,0,4,0.0006185394954785938,1,2,4,4,10,all,1064193
2.219315144370814,LeakyReLU,ReLU,Sigmoid,64,256,0.0,0.05,True,128,0,4,0.0017395141725357265,1,1,5,3,10,all,1204609
1.8441087784337216,LeakyReLU,ReLU,Sigmoid,32,256,0.0,0.0,True,256,0,4,0.0004319757712516482,1,3,3,4,10,all,1317889
1.1650004142620525,LeakyReLU,ReLU,Sigmoid,32,256,0.0,0.0,True,256,0,4,0.0002800511143677185,1,2,4,4,10,all,1384449
1.8922580180109525,LeakyReLU,ReLU,Sigmoid,32,256,0.0,0.0,True,256,0,4,0.00023830424059281062,1,2,4,4,10,all,1384449
1.6070847501520251,LeakyReLU,ReLU,Sigmoid,32,256,0.0,0.1,True,256,0,4,0.0002791640375163487,1,2,4,4,10,all,1384449
27.61753960124782,LeakyReLU,ReLU,Sigmoid,32,256,0.0,0.0,True,256,0,4,0.009962015105585049,1,2,4,4,10,set2set,1253377
2.2126402723007517,LeakyReLU,LeakyReLU,Sigmoid,32,128,0.0,0.0,True,64,0,4,0.0005268021903270791,1,2,4,1,10,all,249857
1.6514411561313223,LeakyReLU,ReLU,Sigmoid,32,256,0.1,0.05,True,256,0,4,0.0001813347339444367,1,2,4,4,10,all,1384449
2.02477156334236,ReLU,LeakyReLU,Sigmoid,32,256,0.0,0.1,False,128,0,4,0.00013657081190459957,1,2,5,4,10,max,1122817
1.930212354073759,LeakyReLU,ReLU,Sigmoid,32,256,0.0,0.0,True,256,0,4,0.0013230946112379829,1,2,4,3,10,all,1318657
2.059622204206029,LeakyReLU,LeakyReLU,Sigmoid,32,128,0.0,0.1,True,64,0,4,0.0003831944883177029,1,2,4,4,10,all,290561
1.9101446004676037,LeakyReLU,ReLU,Sigmoid,32,256,0.0,0.0,True,256,0,4,0.00021727279020091882,1,3,3,4,10,all,1317889
1.807561256357881,LeakyReLU,ReLU,Sigmoid,32,256,0.0,0.0,True,256,0,4,0.0003552927283233855,1,3,3,4,10,all,1317889
1.6188458157855956,LeakyReLU,ReLU,Sigmoid,32,256,0.0,0.0,True,256,0,4,0.0003154728424235625,1,3,4,4,10,all,1384449
1.7098440271420556,LeakyReLU,ReLU,Sigmoid,32,256,0.0,0.0,True,256,0,4,0.0007197157950507085,1,2,3,4,10,all,1317889
2.7301869524306936,LeakyReLU,ReLU,Sigmoid,32,64,0.1,0.05,True,256,0,4,0.00043134810445551316,1,3,2,4,10,max,203009
2.1322235885213634,ReLU,LeakyReLU,Sigmoid,64,256,0.05,0.0,True,128,0,4,0.0015458317205960502,1,2,4,4,10,all,1154561
2.1772839546692175,LeakyReLU,ReLU,Sigmoid,32,256,0.0,0.0,True,64,0,4,0.0008621804948488298,1,2,4,2,10,all,1055873
2.1763040418507624,LeakyReLU,LeakyReLU,Sigmoid,32,128,0.0,0.0,True,256,0,4,0.0002827454264560637,1,3,3,4,10,set2set,430081
1.9532308148556068,LeakyReLU,ReLU,Sigmoid,32,256,0.0,0.05,True,256,0,4,0.0010819860013939434,1,3,5,4,10,all,1451009
2.3572484572402765,LeakyReLU,ReLU,Sigmoid,32,256,0.1,0.1,False,64,0,4,0.00018896815729894085,1,4,3,3,10,max,944321
1.8656180044178103,LeakyReLU,ReLU,Sigmoid,32,256,0.0,0.0,True,256,0,4,0.0004719636454279168,1,3,3,4,10,all,1317889
1.9498227886000619,LeakyReLU,ReLU,Sigmoid,32,256,0.0,0.0,True,256,0,4,0.0004794648001987203,1,3,3,4,10,all,1317889
1.7989638047140153,LeakyReLU,ReLU,Sigmoid,32,256,0.0,0.0,True,256,0,4,0.0005195115433011062,1,3,3,4,10,all,1317889
1.8176208321676879,LeakyReLU,ReLU,Sigmoid,32,256,0.0,0.0,True,256,0,4,0.0003473052681541614,1,3,3,4,10,all,1317889
1.9463725681187676,LeakyReLU,ReLU,Sigmoid,32,256,0.0,0.0,True,256,0,4,0.0006156566342338599,1,2,4,2,10,all,1252865
2.0823556668445713,ReLU,LeakyReLU,Sigmoid,32,256,0.0,0.0,True,128,0,4,0.0008125416297133396,1,2,3,4,10,all,1088001
1.9804148852336603,LeakyReLU,ReLU,Sigmoid,32,256,0.0,0.1,True,256,0,4,0.0004205343961822516,1,3,4,4,10,all,1384449
2.3334263812323086,LeakyReLU,LeakyReLU,Sigmoid,32,128,0.0,0.0,True,256,0,4,0.0002381660864724647,1,2,4,4,10,all,512513
2.209526544223066,LeakyReLU,ReLU,Sigmoid,64,256,0.05,0.05,True,64,0,4,0.0005289936063831837,1,3,4,4,10,all,1064193
2.1344679430371425,ReLU,ReLU,Sigmoid,32,256,0.0,0.0,True,256,0,4,0.00016860795231709119,1,2,3,3,10,max,1055489
2.046235819331935,LeakyReLU,ReLU,Sigmoid,32,128,0.05,0.1,True,64,0,4,0.0003014934299804038,1,1,5,3,10,all,303297
2.1713342231805206,LeakyReLU,ReLU,Sigmoid,32,128,0.1,0.1,True,64,0,4,0.00025360496861544305,1,1,5,3,10,all,303297
2.498526478399996,LeakyReLU,ReLU,Sigmoid,32,128,0.0,0.1,True,64,0,4,0.00034148041925423334,1,1,5,2,10,all,299137
2.011190346029938,LeakyReLU,ReLU,Sigmoid,32,128,0.05,0.1,True,64,0,4,0.00038941765400688806,1,1,5,4,10,all,307457
2.084127731743406,LeakyReLU,LeakyReLU,Sigmoid,32,64,0.05,0.1,True,128,0,4,0.002043351545020429,1,3,5,4,10,all,133633
2.0135572669936006,LeakyReLU,ReLU,Sigmoid,32,128,0.05,0.1,True,64,0,4,0.001246029557719748,1,3,4,3,10,set2set,270017
1.1280554088412738,LeakyReLU,ReLU,Sigmoid,32,256,0.0,0.0,True,256,0,4,0.00020376144927721686,1,2,5,4,10,all,1451009
1.8182962385357404,LeakyReLU,ReLU,Sigmoid,32,256,0.0,0.0,True,256,0,4,0.0002010345672792636,1,2,4,4,10,all,1384449
2.0107049668421513,LeakyReLU,LeakyReLU,Sigmoid,32,256,0.0,0.0,False,256,0,4,0.0014293371160425425,1,2,4,4,10,all,1384449
1.09730492849819,ReLU,ReLU,Sigmoid,32,256,0.0,0.0,True,256,0,4,0.0002721346348289602,1,2,5,4,10,all,1451009
1.1129624137624365,ReLU,ReLU,Sigmoid,32,256,0.0,0.0,True,256,0,4,0.00027320317151301225,1,2,5,4,10,all,1451009
1.0919454188131896,ReLU,ReLU,Sigmoid,32,256,0.0,0.0,True,256,0,4,0.00022848206883974788,1,2,5,4,10,all,1451009
1.9291348044500976,ReLU,ReLU,Sigmoid,32,256,0.0,0.0,True,256,0,4,0.00022133302994653683,1,2,5,4,10,all,1451009
1.1348725972605533,ReLU,ReLU,Sigmoid,32,256,0.0,0.0,True,256,0,4,0.0002724209315566962,1,2,5,4,10,all,1451009
1.8225081675365322,ReLU,ReLU,Sigmoid,32,256,0.0,0.0,True,256,0,4,0.00027663175325632526,1,2,5,4,10,all,1451009
1.7643057987338207,ReLU,ReLU,Sigmoid,32,256,0.0,0.0,True,256,0,4,0.00023476392750511116,1,2,5,4,10,all,1451009
1.50520770813598,ReLU,ReLU,Sigmoid,32,256,0.0,0.0,True,256,0,4,0.0002581082109672198,1,2,5,4,10,all,1451009
1.079539103097603,ReLU,ReLU,Sigmoid,32,256,0.0,0.0,True,256,0,4,0.00029431876531558885,1,2,5,4,10,all,1451009
1.91388260438794,ReLU,ReLU,Sigmoid,32,256,0.0,0.0,True,256,0,4,0.00029124114395938014,1,2,5,4,10,all,1451009
1.533774633143769,ReLU,ReLU,Sigmoid,32,256,0.0,0.0,True,256,0,4,0.0001707602626364289,1,2,5,4,10,all,1451009
1.913170018157021,ReLU,ReLU,Sigmoid,32,256,0.0,0.0,True,256,0,4,0.00020839105821937522,1,2,5,4,10,all,1451009
1.1258568634263804,ReLU,ReLU,Sigmoid,32,256,0.0,0.0,True,256,0,4,0.00031464051486559047,1,2,5,4,10,all,1451009
1.8932832105726491,ReLU,ReLU,Sigmoid,32,256,0.0,0.0,True,256,0,4,0.0002640979717591355,1,2,5,4,10,all,1451009
1.1101578044109657,ReLU,ReLU,Sigmoid,32,256,0.0,0.0,True,256,0,4,0.00023018228393101162,1,2,5,4,10,all,1451009
1.130473282004966,ReLU,ReLU,Sigmoid,32,256,0.0,0.0,True,256,0,4,0.00023224144459689253,1,2,5,4,10,all,1451009
1.8903527425937965,ReLU,ReLU,Sigmoid,32,256,0.0,0.0,True,256,0,4,0.00015148582943218068,1,2,5,4,10,all,1451009
2.0098536493348296,ReLU,ReLU,Sigmoid,64,256,0.0,0.0,True,256,0,4,0.000230578501473808,1,2,5,4,10,all,1451009
1.8980623769466993,ReLU,ReLU,Sigmoid,32,256,0.0,0.0,True,256,0,4,0.00019777728298154418,1,2,5,4,10,all,1451009
1.0760784417879385,ReLU,ReLU,Sigmoid,32,256,0.0,0.0,True,256,0,4,0.00031773121819430206,1,2,5,4,10,all,1451009
1.0827677115553715,ReLU,ReLU,Sigmoid,32,256,0.0,0.0,True,256,0,4,0.000319837617949938,1,2,5,4,10,all,1451009
1.4435548669979221,ReLU,ReLU,Sigmoid,32,256,0.0,0.0,True,256,0,4,0.00029374100216789085,1,2,5,4,10,all,1451009
1.429915576440389,ReLU,ReLU,Sigmoid,32,256,0.0,0.0,True,256,0,4,0.0003162067866438701,1,2,5,4,10,all,1451009
1.0723111426732579,ReLU,ReLU,Sigmoid,32,256,0.0,0.0,True,256,0,4,0.0003532789896448095,1,2,5,4,10,all,1451009
1.0773912658456897,ReLU,ReLU,Sigmoid,32,256,0.0,0.0,True,256,0,4,0.0003750793152337005,1,2,5,4,10,all,1451009
1.0626009151828093,ReLU,ReLU,Sigmoid,32,256,0.0,0.0,True,256,0,4,0.00037250961273706403,1,2,5,4,10,all,1451009
1.0779111348703259,ReLU,ReLU,Sigmoid,32,256,0.0,0.0,True,256,0,4,0.0003308865140980223,1,2,5,4,10,all,1451009
1.4631326303618852,ReLU,ReLU,Sigmoid,32,256,0.0,0.0,True,256,0,4,0.0003804850987505873,1,2,5,4,10,all,1451009
1.8769458827913785,ReLU,ReLU,Sigmoid,32,256,0.0,0.0,True,256,0,4,0.000331025834481904,1,2,5,4,10,all,1451009
1.0842906693454648,ReLU,ReLU,Sigmoid,32,256,0.0,0.0,True,256,0,4,0.00036168491654263744,1,2,5,4,10,all,1451009
1.4016845179874389,ReLU,ReLU,Sigmoid,32,256,0.0,0.0,True,256,0,4,0.0003628690563822509,1,2,5,4,10,all,1451009
1.895122506823696,ReLU,ReLU,Sigmoid,32,256,0.0,0.0,True,256,0,4,0.00032355296521361054,1,2,5,4,10,all,1451009
1.1188376120856551,ReLU,ReLU,Sigmoid,32,256,0.0,0.0,True,256,0,4,0.00041526164254190667,1,2,5,4,10,all,1451009
1.0751346668503323,ReLU,ReLU,Sigmoid,32,256,0.0,0.0,True,256,0,4,0.0004239000913205466,1,2,5,4,10,all,1451009
1.7233183430355103,ReLU,ReLU,Sigmoid,32,256,0.0,0.0,True,256,0,4,0.00044052967817570976,1,2,5,4,10,all,1451009
1.5233852291693453,ReLU,ReLU,Sigmoid,32,256,0.0,0.0,True,256,0,4,0.0003973474434278654,1,2,5,4,10,all,1451009
1.7090030021843363,ReLU,ReLU,Sigmoid,32,256,0.0,0.0,False,256,0,4,0.0003452501048707083,1,2,5,4,10,all,1451009
1.8782344851337496,ReLU,ReLU,Sigmoid,32,256,0.0,0.0,True,256,0,4,0.00040200417233029356,1,2,5,4,10,all,1451009
2.133915777089166,ReLU,ReLU,Sigmoid,32,256,0.0,0.0,True,256,0,4,0.00036960713279017544,1,2,5,4,10,set2set,1319937
2.0198179769222855,ReLU,ReLU,Sigmoid,32,64,0.0,0.0,True,256,0,4,0.0003011343326201376,1,2,5,4,10,all,265217
1.4949787427655985,ReLU,ReLU,Sigmoid,32,256,0.0,0.0,True,256,0,4,0.0004469307037409038,1,2,5,4,10,all,1451009
1.8342906940178794,ReLU,ReLU,Sigmoid,32,256,0.0,0.0,True,256,0,4,0.00025266369500364885,1,2,5,4,10,all,1451009
1.0951570274888491,ReLU,ReLU,Sigmoid,32,256,0.0,0.0,True,256,0,4,0.0003187645515916217,1,2,5,4,10,all,1451009
1.0750568299019923,ReLU,ReLU,Sigmoid,32,256,0.0,0.0,True,256,0,4,0.0003238875274291003,1,2,5,4,10,all,1451009
1.0730964663575908,ReLU,ReLU,Sigmoid,32,256,0.0,0.0,True,256,0,4,0.0003607873979255598,1,2,5,4,10,all,1451009
1.8726488007385222,ReLU,ReLU,Sigmoid,32,256,0.0,0.0,True,256,0,4,0.00035637988726489007,1,2,5,4,10,all,1451009
1.8685515503414343,ReLU,ReLU,Sigmoid,32,256,0.0,0.0,True,256,0,4,0.0002923091379891062,1,2,5,4,10,all,1451009
1.964165870527752,ReLU,ReLU,Sigmoid,64,256,0.0,0.0,True,256,0,4,0.0003509100335679547,1,2,5,4,10,all,1451009
1.0444244957361064,ReLU,ReLU,Sigmoid,32,256,0.0,0.0,True,256,0,4,0.00031838546177039245,1,2,5,4,10,all,1451009
1.1099488092739074,ReLU,ReLU,Sigmoid,32,256,0.0,0.0,True,256,0,4,0.00031832674447512517,1,2,5,4,10,all,1451009
1.0602359351564625,ReLU,ReLU,Sigmoid,32,256,0.0,0.0,True,256,0,4,0.0003322304670350725,1,2,5,4,10,all,1451009
1.3823622814455971,ReLU,ReLU,Sigmoid,32,256,0.0,0.0,True,256,0,4,0.0003284642591905382,1,2,5,4,10,all,1451009
1.0559062588898862,ReLU,ReLU,Sigmoid,32,256,0.0,0.0,True,256,0,4,0.0003861079723953293,1,2,5,4,10,all,1451009
1.0645002901065546,ReLU,ReLU,Sigmoid,32,256,0.0,0.0,True,256,0,4,0.00038258920622843875,1,2,5,4,10,all,1451009
1.0698771344833686,ReLU,ReLU,Sigmoid,32,256,0.0,0.0,True,256,0,4,0.0003824790575802682,1,2,5,4,10,all,1451009
1.8960117604888853,ReLU,ReLU,Sigmoid,32,256,0.0,0.0,True,256,0,4,0.00038623362237238956,1,2,5,4,10,all,1451009
1.9349415048224028,ReLU,ReLU,Sigmoid,32,256,0.0,0.0,True,256,0,4,0.00047349326200469237,1,2,5,4,10,all,1451009
1.0242831816927331,ReLU,ReLU,Sigmoid,32,256,0.0,0.0,True,256,0,4,0.00040802600113028063,1,2,5,4,10,all,1451009
1.4021359169092336,ReLU,ReLU,Sigmoid,32,256,0.0,0.0,True,256,0,4,0.0004236868444068248,1,2,5,4,10,all,1451009
1.5029788405680267,ReLU,ReLU,Sigmoid,32,256,0.0,0.0,False,256,0,4,0.0005530718317021778,1,2,5,4,10,all,1451009
1.0442206808289543,ReLU,ReLU,Sigmoid,32,256,0.0,0.0,True,256,0,4,0.00039016045911763623,1,2,5,4,10,all,1451009
1.282041523788796,ReLU,ReLU,Sigmoid,32,256,0.0,0.0,True,256,0,4,0.0003959468774134686,1,2,5,4,10,all,1451009
1.047854720446907,ReLU,ReLU,Sigmoid,32,256,0.0,0.0,True,256,0,4,0.0005005652685433152,1,2,5,4,10,all,1451009
1.6819833333863587,ReLU,ReLU,Sigmoid,32,256,0.0,0.0,True,256,0,4,0.0004906463394757345,1,2,5,4,10,all,1451009
1.4528848592375145,ReLU,ReLU,Sigmoid,32,256,0.0,0.0,True,256,0,4,0.0004100295789901877,1,2,5,4,10,all,1451009
1.086437035413062,ReLU,ReLU,Sigmoid,32,256,0.0,0.0,True,256,0,4,0.0004545815497882609,1,2,5,4,10,all,1451009
1.8566017145993279,ReLU,ReLU,Sigmoid,32,256,0.0,0.0,True,256,0,4,0.000371636024554049,1,2,5,4,10,all,1451009
2.150673502781352,ReLU,ReLU,Sigmoid,32,256,0.0,0.0,True,256,0,4,0.0004414657864681517,1,2,5,4,10,set2set,1319937
2.0415829679027935,ReLU,ReLU,Sigmoid,32,64,0.0,0.0,True,256,0,4,0.0003334952799828052,1,2,5,4,10,all,265217
1.8826587449331753,ReLU,ReLU,Sigmoid,32,256,0.0,0.0,True,256,0,4,0.00037443724479862243,1,2,5,4,10,all,1451009
1.0328958242154511,ReLU,ReLU,Sigmoid,32,256,0.0,0.0,True,256,0,4,0.0005236658212912627,1,2,5,4,10,all,1451009
1.7753077371687185,ReLU,ReLU,Sigmoid,32,256,0.0,0.0,True,256,0,4,0.0005652543855489875,1,2,5,4,10,all,1451009
1.0710523800283183,ReLU,ReLU,Sigmoid,32,256,0.0,0.0,True,256,0,4,0.0004764664514806475,1,2,5,4,10,all,1451009
1.9015332988051117,ReLU,ReLU,Sigmoid,32,256,0.0,0.0,True,256,0,4,0.0005262062474157388,1,2,5,4,10,all,1451009
1.708868035283245,ReLU,ReLU,Sigmoid,32,256,0.0,0.0,True,256,0,4,0.000654982899249993,1,2,5,4,10,all,1451009
1.9793969964394804,ReLU,ReLU,Sigmoid,32,256,0.0,0.0,True,256,0,4,0.0004945176418012563,1,2,5,4,10,all,1451009
1.1990087115373769,ReLU,ReLU,Sigmoid,32,256,0.0,0.0,True,256,0,4,0.0004496124478940604,1,2,5,4,10,all,1451009
1.9236593857163289,ReLU,ReLU,Sigmoid,64,256,0.0,0.0,True,256,0,4,0.00041296936354216925,1,2,5,4,10,all,1451009
1.4463766222117378,ReLU,ReLU,Sigmoid,32,256,0.0,0.0,True,256,0,4,0.00035600626567843126,1,2,5,4,10,all,1451009
1.4645945681411712,ReLU,ReLU,Sigmoid,32,256,0.0,0.0,True,256,0,4,0.0003991266621065003,1,2,5,4,10,all,1451009
1.0205097826289349,ReLU,ReLU,Sigmoid,32,256,0.0,0.0,True,256,0,4,0.0005916351102875885,1,2,5,4,10,all,1451009
1.8158929045083092,ReLU,ReLU,Sigmoid,32,256,0.0,0.0,True,256,0,4,0.0005969812341116979,1,2,5,4,10,all,1451009
1.048783724058847,ReLU,ReLU,Sigmoid,32,256,0.0,0.0,True,256,0,4,0.0004917733214424677,1,2,5,4,10,all,1451009
1.865812938232891,ReLU,ReLU,Sigmoid,32,256,0.0,0.0,True,256,0,4,0.0005376698004671491,1,2,5,4,10,all,1451009
1.8575055455086662,ReLU,ReLU,Sigmoid,32,256,0.0,0.0,True,256,0,4,0.00048601345163436563,1,2,5,4,10,all,1451009
1.041811694864367,ReLU,ReLU,Sigmoid,32,256,0.0,0.0,True,256,0,4,0.0004422788305912335,1,2,5,4,10,all,1451009
1.6665447100264128,ReLU,ReLU,Sigmoid,32,256,0.0,0.0,True,256,0,4,0.000467435151164135,1,2,5,4,10,all,1451009
1.6906162282971084,ReLU,ReLU,Sigmoid,32,256,0.0,0.0,True,256,0,4,0.0006013700724325728,1,2,5,4,10,all,1451009
1.8552150438066388,ReLU,ReLU,Sigmoid,32,256,0.0,0.0,True,256,0,4,0.000506768781877398,1,2,5,4,10,all,1451009
1.4406087532883785,ReLU,ReLU,Sigmoid,32,256,0.0,0.0,True,256,0,4,0.0004185616614565102,1,2,5,4,10,all,1451009
