value,params_act,params_batch_size,params_dropout,params_dropout_rate,params_hidden_channels,params_hidden_size_mlp,params_lr,params_num_layers,params_num_layers_mlp,params_out_channels,params_readout_layer,user_attrs_complexity
1.7106497923730324,LeakyReLU,32,0.5,0.0985124533505981,128,128,0.0004446117218927023,1,3,512,global_mean_pool,86792
1.5617534283077155,ELU,64,0.05,0.45846877095073596,128,512,0.000584365607562066,3,1,512,global_mean_pool,88840
1.531690047929068,ELU,32,0.0,0.043968979699016086,512,512,0.005184097352751434,1,1,256,global_mean_pool,3848
3.176672379373025,ReLU,128,0.0,0.37236476331563095,512,512,0.0006257029830039701,3,2,64,global_max_pool,337608
1.5709099881998068,LeakyReLU,128,0.05,0.04098605254882226,256,1024,0.0014882995701976476,3,3,64,global_mean_pool,1209032
1.7767629700322305,ELU,32,0.2,0.4672268822420492,512,1024,0.001386759194042931,1,2,128,global_max_pool,141192
1.7791135450154913,LeakyReLU,64,0.05,0.3552963798820951,512,512,0.00013421785314858474,2,1,512,global_max_pool,271368
1.8120183711016444,ReLU,32,0.1,0.15459528667284506,512,64,0.00040506441327762974,1,2,512,global_max_pool,36936
1.6645651786558089,ELU,128,0.2,0.46518467676626807,256,128,0.00029915273295274435,3,1,256,global_mean_pool,136456
1.810799472976855,ELU,32,0.1,0.479596408703143,512,256,0.0004694419468415599,1,1,512,global_max_pool,7688
1.734481976286649,ELU,32,0.3,0.21478612921360427,64,64,0.006774063517109926,2,1,256,global_mean_pool,19656
1.5707491331597416,ELU,64,0.0,0.0020629673182821218,128,512,0.0035100724774413884,2,1,256,global_mean_pool,36488
1.5557847833515102,ELU,64,0.05,0.2925302169311,128,512,0.003043917857414789,3,1,128,global_mean_pool,35464
1.7625089416432913,ELU,64,0.0,0.20372459398182796,64,512,0.008305571535695522,2,2,256,global_mean_pool,153288
1.7596667262519856,ELU,64,0.5,0.2935306509077571,128,256,0.00018540973789405127,2,1,512,global_mean_pool,72072
1.589269887424876,ReLU,32,0.3,0.39123910660344385,128,512,0.0010240955812690776,1,2,256,global_mean_pool,137480
1.5971049700422264,ELU,64,0.05,0.1454614525484435,64,512,0.0025171503449540776,3,1,128,global_mean_pool,14344
1.462471225125618,ELU,32,0.0,0.08479953340104462,256,512,0.000747821305104895,2,3,64,global_mean_pool,318408
1.5055008218542814,LeakyReLU,32,0.0,0.07588560618857235,256,128,0.005919477437129843,1,3,64,global_mean_pool,26312
1.4376661401824382,LeakyReLU,32,0.0,0.105397068111937,256,128,0.0014369921430238363,2,3,64,global_mean_pool,44232
1.4745822784031,LeakyReLU,32,0.0,0.12502280610610333,256,128,0.0019578222259279124,2,3,64,global_mean_pool,44232
1.4256115353137033,LeakyReLU,32,0.0,0.13223507914465316,256,128,0.0015811362719896542,2,3,64,global_mean_pool,44232
1.4510115071502572,LeakyReLU,32,0.0,0.1819030117179905,256,128,0.0008948639536841178,2,3,64,global_mean_pool,44232
1.4770822122730038,LeakyReLU,32,0.0,0.1936685787676548,256,128,0.0010015298097531217,2,3,64,global_mean_pool,44232
1.437602399004896,LeakyReLU,32,0.0,0.2625674280196479,256,128,0.0017261370969852187,2,3,64,global_mean_pool,44232
1.4420435966983918,LeakyReLU,32,0.0,0.23777972120290408,256,128,0.0016173163511873842,2,3,64,global_mean_pool,44232
1.497567908935452,LeakyReLU,128,0.0,0.2700369099363153,256,128,0.004055090440586874,2,3,64,global_mean_pool,44232
1.8581057278157465,LeakyReLU,32,0.3,0.31374974539903755,256,128,0.0023650174103985277,2,3,64,global_max_pool,44232
1.7892801519067352,LeakyReLU,32,0.2,0.24681479489980657,256,128,0.0012923866729123619,2,2,64,global_mean_pool,27720
1.733580651709223,LeakyReLU,32,0.5,0.11742751280157529,256,128,0.001955404178378902,2,3,64,global_mean_pool,44232
1.824993980137941,LeakyReLU,32,0.1,0.04811584697539423,256,1024,0.003993709694619876,2,3,64,global_mean_pool,1142728
1.4727515635951873,LeakyReLU,32,0.0,0.23917640253073008,256,128,0.0018146390004587809,2,3,64,global_mean_pool,44232
1.4761626610980731,LeakyReLU,32,0.0,0.16089213901180272,256,128,0.0012874822110656714,2,3,64,global_mean_pool,44232
1.4976616396797502,LeakyReLU,32,0.0,0.22948385729225432,256,128,0.0028516956667243064,2,3,64,global_mean_pool,44232
1.4157910823230413,LeakyReLU,32,0.0,0.40925721754743255,256,128,0.0007577203947249173,2,3,64,global_mean_pool,44232
1.806820491999018,ReLU,128,0.5,0.4039061497573091,256,64,0.0006392559790979977,3,3,64,global_mean_pool,93512
1.4915680790657442,LeakyReLU,32,0.0,0.33523308042667527,64,256,0.0008876533252114977,2,2,128,global_mean_pool,44104
1.7439963897463702,LeakyReLU,32,0.0,0.4389996551806768,256,128,0.00037630523114869573,1,3,64,global_max_pool,26312
1.5960335196099862,LeakyReLU,128,0.0,0.008523408704397356,256,1024,0.0005305168031492744,3,2,64,global_mean_pool,159432
2.0194140323634184,ReLU,32,0.0,0.43833911602810216,256,128,0.0011949991154156811,2,3,64,global_max_pool,44232
1.608394887252126,LeakyReLU,32,0.2,0.11484161910719878,512,128,0.00030303204017071805,1,3,512,global_mean_pool,86792
1.4599357160090216,LeakyReLU,32,0.0,0.06529660744776852,256,128,0.001579937378847985,2,3,64,global_mean_pool,44232
1.4739442691022053,LeakyReLU,32,0.0,0.4978422247901758,256,128,0.0007120133642414408,2,3,64,global_mean_pool,44232
1.5406854111266788,LeakyReLU,32,0.1,0.34869816005007076,256,128,0.0016127538107813951,2,3,64,global_mean_pool,44232
1.5117536129490021,LeakyReLU,32,0.0,0.16341466765263818,256,64,0.0011126983693265724,2,3,64,global_mean_pool,27208
2.070715483897377,LeakyReLU,32,0.0,0.26284847514254667,256,128,0.0021955018348650515,2,3,128,global_max_pool,69000
1.6175142393514477,LeakyReLU,128,0.05,0.09568570430302048,512,256,0.0015135427723403391,3,3,64,global_mean_pool,384712
1.9694749486653444,ReLU,32,0.3,0.18215623988764507,128,1024,0.0008280125275943687,2,2,512,global_mean_pool,601480
1.483508050885449,LeakyReLU,32,0.0,0.37543818515326616,64,128,0.0005474897422463824,2,2,256,global_mean_pool,51528
1.8777625581466826,LeakyReLU,64,0.2,0.21918539894382688,256,64,0.0033323003405830815,2,3,64,global_mean_pool,27208
1.8369662797184796,LeakyReLU,32,0.5,0.28450568055805814,512,128,0.00266730218768148,1,3,128,global_max_pool,34952
1.453686574848355,LeakyReLU,32,0.0,0.14239939277074454,256,128,0.0009041462879553139,2,3,64,global_mean_pool,44232
1.4459059164482666,LeakyReLU,32,0.0,0.18092574013927903,256,128,0.0013690909437683565,2,3,64,global_mean_pool,44232
1.451040647165947,LeakyReLU,32,0.0,0.17297561231078895,256,128,0.0017749231608584356,2,3,64,global_mean_pool,44232
1.4416888464177513,LeakyReLU,32,0.0,0.20171529883362577,256,128,0.0011201718171690957,2,3,64,global_mean_pool,44232
1.4715253079203754,ReLU,64,0.0,0.10235016080520315,128,128,0.0006880698637331788,2,3,64,global_mean_pool,35144
1.4632924993339897,LeakyReLU,32,0.05,0.13472264967291991,256,256,0.0008556603065880276,2,3,256,global_mean_pool,201736
1.6027818977389088,LeakyReLU,32,0.1,0.21539902642003375,64,128,0.0021538649719257206,2,3,512,global_mean_pool,117960
1.4735889349031093,LeakyReLU,128,0.0,0.3133934458549129,256,128,0.0004805161671554432,2,2,64,global_mean_pool,27720
1.4907881707766513,ELU,32,0.0,0.258031393744131,256,1024,0.000964788864172863,2,3,64,global_mean_pool,1142728
1.6773539950179106,LeakyReLU,32,0.3,0.05701332550079215,256,128,0.0001886249721341872,2,3,64,global_mean_pool,44232
1.4440269535291874,LeakyReLU,32,0.0,0.18048156035191196,256,128,0.0017114851730368622,2,3,64,global_mean_pool,44232
1.4468271918687277,LeakyReLU,32,0.0,0.024727892350030214,256,128,0.001937369848817638,2,3,64,global_mean_pool,44232
1.471252480452469,LeakyReLU,32,0.0,0.0203191761349473,256,128,0.0014069890127124283,2,3,64,global_mean_pool,44232
1.6456858242120105,LeakyReLU,32,0.0,0.026886219870429204,256,128,0.002097462183727791,2,3,64,global_mean_pool,44232
1.59047417575609,LeakyReLU,32,0.0,0.0884214595147389,256,512,0.0026035664968311802,2,3,64,global_mean_pool,318408
1.534888685489115,LeakyReLU,64,0.0,0.1530444077577386,128,128,0.0010992291197843547,2,3,64,global_mean_pool,35144
2.0821030628000834,LeakyReLU,32,0.5,0.23048383941668854,256,128,0.001245370412792105,2,3,256,global_max_pool,118536
1.7794998239346829,ELU,32,0.2,0.13025757802517493,256,64,0.004709071370082939,2,3,64,global_mean_pool,27208
1.4709396548661642,ReLU,32,0.0,0.10841056042130967,512,128,0.001961863982454189,2,3,128,global_mean_pool,103560
1.448006817779825,LeakyReLU,32,0.0,0.07579967991350142,256,256,0.0007899552006669122,2,3,64,global_mean_pool,102856
1.5314582044965872,LeakyReLU,32,0.0,0.06540698268470965,256,256,0.000760472635858448,2,3,64,global_mean_pool,102856
1.4752718168807681,LeakyReLU,32,0.0,0.07789811320212647,256,256,0.0006025257029876441,2,3,64,global_mean_pool,102856
1.434467704361189,LeakyReLU,32,0.0,0.046515051857495604,256,256,0.001009402599627879,2,3,64,global_mean_pool,102856
1.492408907443063,LeakyReLU,32,0.0,0.0336098705485923,256,256,0.0014847521902440683,2,3,64,global_mean_pool,102856
1.592949874939457,LeakyReLU,128,0.1,0.41207790413794065,64,128,0.0003936892071279353,2,3,64,global_mean_pool,30600
1.5299832057716236,LeakyReLU,32,0.05,0.1226176507018962,256,512,0.0007700530769307552,2,3,512,global_mean_pool,663816
1.4445483255622997,LeakyReLU,32,0.0,0.2829413081848281,256,128,0.0023835025800540218,2,3,64,global_mean_pool,44232
1.8533228632829917,LeakyReLU,32,0.3,0.06931478429539455,256,1024,0.0032400455936155625,2,3,64,global_max_pool,1142728
1.4366765877153382,LeakyReLU,32,0.0,0.08985834429641218,256,128,0.001747266735873047,2,3,64,global_mean_pool,44232
1.5044785894767818,ELU,64,0.0,0.008362533114879014,256,256,0.001258124534446758,2,3,64,global_mean_pool,102856
1.439829643547683,LeakyReLU,32,0.0,0.17484428370421307,256,128,0.001686945763368865,2,3,64,global_mean_pool,44232
1.4455980837493025,LeakyReLU,32,0.0,0.14845119441629523,256,128,0.0015419236250154146,2,3,64,global_mean_pool,44232
1.580736378286376,LeakyReLU,32,0.0,0.20340178582766966,256,128,0.0019074390883508075,2,3,64,global_mean_pool,44232
1.4670031768808294,LeakyReLU,32,0.0,0.31490164468272175,256,128,0.0011228749567769583,2,3,64,global_mean_pool,44232
1.4354516498504146,LeakyReLU,32,0.0,0.1651304672706987,256,128,0.001327249899103731,2,3,64,global_mean_pool,44232
1.5861159758295669,LeakyReLU,32,0.0,0.1926970214010032,128,128,0.0029111695727007,2,3,128,global_mean_pool,51720
1.7489041690495115,ReLU,32,0.5,0.24112166955980022,256,64,0.0006507803165227196,2,3,64,global_mean_pool,27208
1.8873359384962702,LeakyReLU,32,0.2,0.13596586044730358,512,128,0.00966227505690122,2,3,256,global_mean_pool,185864
1.4362668692326133,LeakyReLU,128,0.0,0.11219602181091001,256,128,0.0022712345246240374,2,3,64,global_mean_pool,44232
1.6176005365239183,LeakyReLU,32,0.0,0.4465700727694315,64,128,0.0016296386936525277,3,2,512,global_max_pool,105736
1.431723458299566,LeakyReLU,32,0.0,0.16839427586487343,256,128,0.0017920859487050905,2,3,64,global_mean_pool,44232
1.4568158266857896,LeakyReLU,32,0.0,0.19265244360606956,256,128,0.0009592459832629631,2,3,64,global_mean_pool,44232
1.4410337706653416,LeakyReLU,32,0.0,0.17051527417993217,256,128,0.001928301976842118,2,3,64,global_mean_pool,44232
1.4651638100815767,LeakyReLU,32,0.0,0.10080276533472875,256,128,0.0016656460603318955,2,3,64,global_mean_pool,44232
1.4421756249799327,LeakyReLU,32,0.0,0.2225154412399814,256,128,0.0013793689094276067,2,3,64,global_mean_pool,44232
1.4707825745897316,LeakyReLU,32,0.05,0.15436607495943658,256,128,0.0008686569702454587,2,3,64,global_mean_pool,44232
1.5347517163818587,LeakyReLU,32,0.1,0.14100392080016577,256,512,0.0012086409954014552,2,3,64,global_mean_pool,318408
1.694600818470749,LeakyReLU,64,0.0,0.056034299325207704,256,256,0.003705469184522199,2,1,64,global_mean_pool,18888
1.818333117305197,LeakyReLU,32,0.3,0.17390147709192863,256,1024,0.0025166026105071385,2,3,64,global_mean_pool,1142728
1.4942974355025564,ELU,32,0.0,0.2525918448953751,256,128,0.0021288161157427803,2,3,64,global_mean_pool,44232
1.4466644416080219,LeakyReLU,32,0.0,0.12916984446099933,256,128,0.000962621742994686,2,3,64,global_mean_pool,44232
1.4389260087356377,LeakyReLU,32,0.0,0.14403926271287362,256,128,0.0008142383366230408,2,3,64,global_mean_pool,44232
1.460690721388786,LeakyReLU,32,0.0,0.0800936309905434,256,128,0.0014889645318393108,2,3,64,global_mean_pool,44232
1.5018969368993793,LeakyReLU,32,0.0,0.37078173484066684,256,128,0.0005588443724696662,2,3,64,global_mean_pool,44232
1.4471637548938874,LeakyReLU,32,0.0,0.12017744401988702,256,128,0.00108515970777616,2,3,64,global_mean_pool,44232
1.4283360695424803,ReLU,32,0.0,0.18633442069936318,128,128,0.0007125382329444012,2,3,128,global_mean_pool,51720
1.4011697079940115,ReLU,32,0.0,0.18562091023178617,128,128,0.0007031517286490654,2,3,128,global_mean_pool,51720
1.4795736535902946,ReLU,128,0.0,0.18762781751090532,128,64,0.00047488799490117827,2,3,128,global_mean_pool,30600
2.18336557839112,ReLU,32,0.5,0.20917108505070958,128,128,0.0006456653253577674,2,3,128,global_max_pool,51720
1.4454778267195443,ReLU,32,0.0,0.22761952885380388,128,256,0.0007197083952418155,2,3,128,global_mean_pool,118536
1.44814848249071,ReLU,32,0.0,0.1765068692532435,128,128,0.0005145653773284218,2,3,128,global_mean_pool,51720
1.4233227814397504,ReLU,32,0.0,0.15766656465597217,128,128,0.0007949528997851579,2,3,128,global_mean_pool,51720
1.4170836254621557,ReLU,32,0.0,0.1565179084273451,128,128,0.0007765343501267639,2,3,128,global_mean_pool,51720
1.438173550530048,ReLU,32,0.0,0.15584880277986365,128,128,0.0005995168643935796,2,3,128,global_mean_pool,51720
1.4358334680349005,ReLU,32,0.0,0.19782623112817238,128,128,0.000697179261250521,2,3,128,global_mean_pool,51720
1.755018798352471,ReLU,32,0.2,0.10597113848207793,128,128,0.0008348154966775017,2,3,128,global_mean_pool,51720
1.491361621000039,ReLU,32,0.0,0.2697093384580327,128,128,0.00010408419011464451,2,3,128,global_mean_pool,51720
1.4175924243169742,ReLU,32,0.0,0.09500182622645444,128,128,0.0007649934127150053,2,3,128,global_mean_pool,51720
1.4484699677592767,ReLU,32,0.0,0.2080878813306676,128,128,0.0004313577564814044,2,3,128,global_mean_pool,51720
1.50933988041085,ReLU,64,0.05,0.16464689108705896,128,128,0.0009207792867160811,2,3,128,global_mean_pool,51720
1.4083564130603232,ReLU,32,0.0,0.09490211878441335,128,128,0.000784253409078224,2,3,128,global_mean_pool,51720
1.442747327293415,ReLU,32,0.0,0.12551364120517033,128,128,0.0006599125106509442,2,3,128,global_mean_pool,51720
1.4388639468413134,ReLU,32,0.0,0.11586687354332419,128,128,0.00102247975819534,2,3,128,global_mean_pool,51720
1.3970357383746959,ReLU,32,0.0,0.09609230146819497,128,128,0.0007334249526759581,2,3,128,global_mean_pool,51720
1.4417245473814366,ReLU,32,0.0,0.49020846288622155,128,128,0.0007303074345906682,2,3,128,global_mean_pool,51720
1.6755630263028014,ReLU,32,0.1,0.09056113635189048,128,128,0.0006002010776416784,2,3,128,global_mean_pool,51720
1.4515002291492434,ReLU,32,0.0,0.10032394691018344,128,128,0.0005204098100680648,2,3,128,global_mean_pool,51720
1.4216050092990582,ReLU,32,0.0,0.13658135134639407,128,128,0.0008007983282394762,2,3,128,global_mean_pool,51720
1.4104559797211262,ReLU,32,0.0,0.13546167835940254,128,128,0.0007662188272300159,2,3,128,global_mean_pool,51720
1.7082510663025432,ReLU,32,0.3,0.13959280163367382,128,512,0.00034833070954850984,2,3,128,global_mean_pool,350472
1.4024120625432017,ReLU,32,0.0,0.15115374084020708,128,128,0.0007392311044040551,2,3,128,global_mean_pool,51720
1.4121462636195106,ReLU,32,0.0,0.15148088137618854,128,128,0.0007753633092965705,2,3,128,global_mean_pool,51720
1.3995226160172494,ReLU,32,0.0,0.15752908187855547,128,128,0.0007539285658953332,2,3,128,global_mean_pool,51720
1.4198919502144711,ReLU,32,0.0,0.16066143993565157,128,128,0.0007497417695539211,2,3,128,global_mean_pool,51720
1.409561980451011,ReLU,32,0.0,0.1508065401493793,128,128,0.0007852167510662919,2,3,128,global_mean_pool,51720
1.4113749656132966,ReLU,32,0.0,0.14912695097295753,128,128,0.0007989281231482831,2,3,128,global_mean_pool,51720
1.4144168944276,ReLU,32,0.0,0.14633699461678346,128,128,0.0008792184696074666,2,3,128,global_mean_pool,51720
1.4043334823092515,ReLU,32,0.0,0.14668033148379195,128,128,0.0008782953628285633,2,3,128,global_mean_pool,51720
3.0108764680384406,ReLU,32,0.0,0.1503168466068488,128,1024,0.0008766978274581604,2,3,128,global_max_pool,1207560
1.4527456979301965,ReLU,128,0.0,0.1464100648049059,128,128,0.0005740609252216462,2,3,128,global_mean_pool,51720
1.4163509749301315,ReLU,32,0.0,0.16371151506644335,128,128,0.0007508844696185664,2,3,128,global_mean_pool,51720
1.4454238459135107,ReLU,32,0.0,0.13068517226058532,128,128,0.0006437547994916921,2,3,128,global_mean_pool,51720
1.4078487009919312,ReLU,32,0.0,0.12290866782451795,128,128,0.0008828617792638113,2,3,128,global_mean_pool,51720
1.4313088634765474,ReLU,32,0.0,0.12543967604842648,128,128,0.0009336355726544804,2,3,128,global_mean_pool,51720
1.4311478525474113,ReLU,32,0.0,0.11550785785404483,128,128,0.0006868993829500409,2,3,128,global_mean_pool,51720
1.4273733291081696,ReLU,32,0.0,0.14509039560773596,128,128,0.0008521140486932208,2,3,128,global_mean_pool,51720
1.5170035146306229,ReLU,32,0.0,0.15767508855794188,128,128,0.0008891693973261855,2,3,128,global_mean_pool,51720
1.438248268427979,ReLU,32,0.0,0.16790455906138793,128,128,0.0010668420018956496,2,3,128,global_mean_pool,51720
1.7487360490462915,ReLU,32,0.5,0.14935097736125935,128,128,0.0010102184306469953,2,3,128,global_mean_pool,51720
1.444386541695512,ReLU,32,0.0,0.13513230141019997,128,128,0.0006132346706228883,2,3,128,global_mean_pool,51720
1.452708107070355,ReLU,32,0.0,0.10834798011297936,128,128,0.000763414790639456,2,3,128,global_mean_pool,51720
1.3995110633651318,ReLU,32,0.0,0.1209154808514613,128,128,0.0007506839214014744,2,3,128,global_mean_pool,51720
1.436495162713025,ReLU,32,0.0,0.11844359586148688,128,128,0.0006842031167100691,2,3,128,global_mean_pool,51720
1.4597206328702033,ReLU,32,0.0,0.13200015152195124,128,64,0.0008105052105667999,2,3,128,global_mean_pool,30600
1.7320833732709104,ReLU,32,0.2,0.14288997677486784,128,128,0.0009354576709013741,2,3,128,global_mean_pool,51720
1.435490980633435,ReLU,64,0.0,0.1596107525938425,128,128,0.0007153308646066318,2,3,128,global_mean_pool,51720
1.5733218586474436,ReLU,32,0.0,0.17791978232653483,128,128,0.0005566983805601708,2,1,128,global_mean_pool,18696
1.4027633415558203,ReLU,32,0.0,0.12665406643301044,128,128,0.0008329417031431807,2,3,128,global_mean_pool,51720
1.413420121072244,ReLU,32,0.0,0.12528340746073288,128,128,0.0008600297741851305,2,3,128,global_mean_pool,51720
1.6119872343451451,ReLU,32,0.05,0.1220225641127353,128,128,0.0008815880976362075,2,2,128,global_mean_pool,35208
1.440663894116139,ReLU,32,0.0,0.10940120628808751,128,128,0.000637770690583227,2,3,128,global_mean_pool,51720
1.4062198072154233,ReLU,32,0.0,0.12823078552437311,128,128,0.0008286303153427814,2,3,128,global_mean_pool,51720
1.4418855115734317,ReLU,32,0.0,0.1278722902736448,128,128,0.000999705847545551,2,3,128,global_mean_pool,51720
1.415743726358816,ReLU,32,0.0,0.09761551956406164,128,128,0.0008404575177855247,2,3,128,global_mean_pool,51720
1.5369274219863172,ReLU,32,0.0,0.0830425485035871,128,128,0.0008479767935403034,2,3,128,global_mean_pool,51720
1.4646085287737787,ReLU,32,0.0,0.09745423764269134,128,512,0.0011167960156754587,2,3,128,global_mean_pool,350472
1.3955986819255441,ReLU,32,0.0,0.10754293960576802,128,128,0.0008312961993496087,2,3,128,global_mean_pool,51720
2.5618924171693864,ReLU,32,0.0,0.11144235251655023,128,128,0.0009481094613935378,2,3,128,global_max_pool,51720
1.6651385877623452,ReLU,32,0.1,0.13640815139944606,128,128,0.0006739785630887558,2,3,128,global_mean_pool,51720
1.4622416475570528,ReLU,32,0.0,0.12138799036260199,128,1024,0.0008324913309924613,2,3,128,global_mean_pool,1207560
1.4117743057885181,ReLU,32,0.0,0.1010672917443308,128,128,0.000830352186974918,2,3,128,global_mean_pool,51720
1.4319314155034333,ReLU,32,0.0,0.0867503788582522,128,128,0.0007128794097237077,2,3,128,global_mean_pool,51720
1.4044185761482484,ReLU,32,0.0,0.10867568834618993,128,128,0.0009067051216744881,2,3,128,global_mean_pool,51720
1.4387555935838383,ReLU,32,0.0,0.07276219006890272,128,128,0.000968862354398556,2,3,128,global_mean_pool,51720
1.735329704604137,ReLU,32,0.3,0.10895683572020612,128,128,0.0007829576935111699,2,3,128,global_mean_pool,51720
1.4418282603507597,ReLU,32,0.0,0.1044772942837624,128,128,0.0010421073715086427,2,3,256,global_mean_pool,84872
1.5212860163624766,ReLU,128,0.0,0.11856125511427422,512,128,0.0006172424819580935,2,3,128,global_mean_pool,103560
1.4432492699871584,ReLU,32,0.0,0.12937229414584106,128,128,0.0011944685943372445,2,3,128,global_mean_pool,51720
1.4267328489507103,ReLU,32,0.0,0.14136763600528013,64,128,0.0007255035977038579,2,3,128,global_mean_pool,43080
1.4623831708732964,ReLU,32,0.0,0.0920713881781516,128,128,0.000802321496857344,2,3,512,global_mean_pool,151176
1.4464110899208202,ReLU,32,0.0,0.14837086612710376,128,128,0.000896003973130866,2,3,128,global_mean_pool,51720
1.4258066211681508,ReLU,32,0.0,0.12701302340984505,128,128,0.0009139273966785367,2,3,128,global_mean_pool,51720
1.4278294640794285,ReLU,32,0.0,0.1148952323745563,128,128,0.0006721241847569883,2,3,128,global_mean_pool,51720
1.4121832687860683,ReLU,32,0.0,0.1371581457364541,128,128,0.000829676974464242,2,3,128,global_mean_pool,51720
1.412219285669161,ReLU,32,0.0,0.13573871635814383,128,128,0.0007539915333332237,2,3,128,global_mean_pool,51720
1.4257796446679543,ReLU,32,0.0,0.13661630561844681,128,128,0.0007621861161261129,2,3,128,global_mean_pool,51720
1.4690153764436027,ReLU,32,0.0,0.13717920701830835,128,64,0.0006712002589273902,2,3,128,global_mean_pool,30600
1.7640940131383853,ReLU,32,0.5,0.15235190875894328,128,128,0.0005894007472634225,2,3,128,global_mean_pool,51720
1.5289339282672398,ELU,64,0.0,0.10102886452833104,128,128,0.0007950515806377672,2,3,128,global_mean_pool,51720
1.7473272993310214,ReLU,32,0.2,0.11177903317858222,128,128,0.000729574022058921,2,3,128,global_mean_pool,51720
1.4265375891631058,ReLU,32,0.0,0.11938395677189745,128,128,0.0008310465348568418,2,3,128,global_mean_pool,51720
1.4277684934086008,ReLU,32,0.0,0.13028030148495068,128,128,0.0009672601987898712,2,3,128,global_mean_pool,51720
1.413656521671759,ReLU,32,0.0,0.12206373346475466,128,128,0.0008713645529716029,2,3,128,global_mean_pool,51720
1.4125604531901055,ReLU,32,0.0,0.15139263617174384,128,128,0.0007228181536145349,2,3,128,global_mean_pool,51720
1.4286377285017862,ReLU,32,0.0,0.14972813849568806,128,128,0.000708493530264132,2,3,128,global_mean_pool,51720
1.4429063424283162,ReLU,32,0.0,0.14077336742575583,128,128,0.0006197755858203985,2,3,128,global_mean_pool,51720
1.3987933267139028,ReLU,32,0.0,0.1609546186739445,128,128,0.0007659422654282211,2,3,128,global_mean_pool,51720
1.4268993686505642,ReLU,32,0.0,0.16766698162563837,128,128,0.0007879144678526079,2,3,128,global_mean_pool,51720
1.4304580611567344,ReLU,32,0.0,0.16029795557718307,128,128,0.0009710865779659035,2,3,128,global_mean_pool,51720
1.4414107216794791,ReLU,32,0.0,0.1005929007269519,128,512,0.0010494721193862046,2,3,256,global_mean_pool,432776
1.4155486993695015,ReLU,32,0.0,0.14960951816136023,128,128,0.0007408998002107015,2,3,128,global_mean_pool,51720
1.4338350402510196,ReLU,32,0.0,0.17316172485687137,128,128,0.0006588050815800046,2,3,128,global_mean_pool,51720
1.8237753843255433,ReLU,32,0.0,0.13887708885586458,128,128,0.0008071294078450154,2,3,128,global_max_pool,51720
1.4277781194847807,ReLU,32,0.0,0.15583268107707576,128,128,0.0007275878654908068,2,3,128,global_mean_pool,51720
1.436261731400975,ReLU,32,0.0,0.12898748440897384,512,128,0.000909197197939759,2,3,128,global_mean_pool,103560
1.5395522058453808,ReLU,32,0.05,0.09080930923258299,128,128,0.0006705894466242984,2,3,128,global_mean_pool,51720
1.6304517321787757,ReLU,32,0.1,0.14587852549331656,128,128,0.0007846059992503197,2,3,128,global_mean_pool,51720
1.4623152949378153,ReLU,128,0.0,0.08135314032306665,64,128,0.0005309702699441533,2,3,128,global_mean_pool,43080
1.4569001452206973,ReLU,32,0.0,0.11060204513271543,128,1024,0.0008538992414088684,2,3,512,global_mean_pool,1651080
1.430849636754682,ReLU,32,0.0,0.16654418089622078,128,128,0.0007378291084307813,2,3,128,global_mean_pool,51720
1.4056511339419533,ReLU,32,0.0,0.1281466281900381,128,128,0.0008584043115330361,2,3,128,global_mean_pool,51720
1.4308687146780805,ReLU,32,0.0,0.1344629703967521,128,128,0.0008264519801116757,2,3,128,global_mean_pool,51720
1.4252767320306365,ReLU,32,0.0,0.15461445239104907,128,128,0.0009206873790792257,2,3,128,global_mean_pool,51720
1.4412371715895886,ReLU,32,0.0,0.12071821535808293,128,128,0.0006892874365651342,2,3,128,global_mean_pool,51720
1.4152064199187324,ReLU,32,0.0,0.14433652956138027,128,128,0.0008032418588444483,2,3,128,global_mean_pool,51720
1.746686405638607,ReLU,32,0.3,0.10461682418372856,128,128,0.0010174252516007218,2,3,128,global_mean_pool,51720
1.4392059961560346,ReLU,32,0.0,0.13461109147687475,128,128,0.0006369012611947867,2,3,128,global_mean_pool,51720
1.418122921037319,ReLU,32,0.0,0.11527601196827214,128,128,0.0008887472076600068,2,3,128,global_mean_pool,51720
1.537642901943576,ELU,32,0.0,0.18354420716759873,128,128,0.0007625442590385274,2,3,128,global_mean_pool,51720
1.4527923481044343,ReLU,32,0.0,0.12825092300819316,128,128,0.001122977296577544,2,3,128,global_mean_pool,51720
1.4295301135657148,ReLU,32,0.0,0.12326860805922607,128,128,0.0008477703951238526,2,3,128,global_mean_pool,51720
1.4258754374667373,ReLU,32,0.0,0.14052645451253065,128,128,0.0009281069846963049,2,3,128,global_mean_pool,51720
1.4065374103432553,ReLU,32,0.0,0.15891556791536773,128,128,0.000756149958758604,2,3,128,global_mean_pool,51720
1.4343790638239744,ReLU,32,0.0,0.16182895878020462,128,128,0.0007236329885859311,2,3,128,global_mean_pool,51720
1.425385461255871,ReLU,32,0.0,0.15447767755886727,128,128,0.0007748069081680864,2,3,128,global_mean_pool,51720
1.438266516323421,ReLU,32,0.0,0.14757689983230543,128,128,0.0006793932202317923,2,2,128,global_mean_pool,35208
1.4474401358635194,ReLU,64,0.0,0.17048418255339767,128,128,0.0005867795031852884,2,3,128,global_mean_pool,51720
1.423352505965505,ReLU,32,0.0,0.13857086266101482,128,128,0.0008338340462787938,2,3,128,global_mean_pool,51720
1.430102704476482,ReLU,32,0.0,0.1585291570567758,128,128,0.0007294984954428543,2,3,128,global_mean_pool,51720
1.6861788797615185,ReLU,32,0.0,0.10913894679842565,128,128,0.00018622358622172298,2,3,128,global_max_pool,51720
1.435624604189662,ReLU,32,0.0,0.1254145606645989,128,128,0.0008577047494254989,2,3,128,global_mean_pool,51720
1.4400783463683968,ReLU,32,0.0,0.1329370262517547,128,64,0.0009151939773104699,2,3,128,global_mean_pool,30600
1.4281627454473718,ReLU,32,0.0,0.09966067654173658,128,128,0.0007837634461309231,2,3,128,global_mean_pool,51720
1.4364119392470744,ReLU,32,0.0,0.11785811001453958,128,128,0.0009963681828982311,2,3,128,global_mean_pool,51720
1.7679767058445857,ReLU,32,0.5,0.12918214733514932,128,128,0.0008553125211094864,2,3,128,global_mean_pool,51720
1.4121273602208784,ReLU,32,0.0,0.14722670759762987,128,128,0.0007547629227781687,2,3,128,global_mean_pool,51720
1.7144787394379268,ReLU,32,0.2,0.15001271286444356,128,128,0.0006485163581755803,2,3,256,global_mean_pool,84872
1.4288127534738546,ReLU,32,0.0,0.14011118896104027,128,128,0.0007274582009890292,2,3,128,global_mean_pool,51720
1.4255261447826035,ReLU,32,0.0,0.16558312847687162,128,128,0.000742044425014291,2,3,128,global_mean_pool,51720
1.4517307429396484,ReLU,32,0.0,0.15409660145290263,512,128,0.0008022899072136408,2,3,128,global_mean_pool,103560
1.4325385185388417,ReLU,32,0.0,0.14374107575660028,128,128,0.0008746011105849546,2,3,128,global_mean_pool,51720
1.427492487519314,ReLU,32,0.0,0.11799303870998937,128,128,0.0006929368327311698,2,3,128,global_mean_pool,51720
1.4691201137845629,ReLU,32,0.0,0.1300540208838927,128,128,0.0009444477121782472,2,3,128,global_mean_pool,51720
1.4012905876926394,ReLU,32,0.0,0.09570297536298891,128,128,0.0008259901620492605,2,3,128,global_mean_pool,51720
1.4078891484376514,ReLU,32,0.0,0.08940906203540286,128,128,0.0007861406207084154,2,3,128,global_mean_pool,51720
1.4877698013267802,ReLU,32,0.0,0.08131967805815166,128,512,0.0007909748509021314,2,3,128,global_mean_pool,350472
1.438139808680816,ReLU,32,0.0,0.0670641509290475,128,128,0.0008021000536480007,2,3,512,global_mean_pool,151176
1.442860264636151,ReLU,32,0.0,0.08802306516118996,128,256,0.0002202886415307093,2,3,128,global_mean_pool,118536
1.5805772986660525,ReLU,32,0.0,0.10199297969391172,64,128,0.0006407067229835078,2,1,128,global_mean_pool,10056
1.5436896857789373,ELU,32,0.0,0.09569187914932177,128,128,0.0009264972271710631,2,3,128,global_mean_pool,51720
1.5230528737416043,ReLU,128,0.05,0.0861996501476668,128,128,0.0007664524645078945,2,3,128,global_mean_pool,51720
1.560172000534777,ReLU,32,0.1,0.10798084147944333,128,1024,0.0008166833220778108,2,3,128,global_mean_pool,1207560
1.4337662319391595,ReLU,32,0.0,0.09502922442408783,128,128,0.0006957813752200464,2,3,128,global_mean_pool,51720
1.4247996611867295,ReLU,32,0.0,0.07649332748848178,128,128,0.0008543575975345814,2,3,128,global_mean_pool,51720
1.4282806529004874,ReLU,32,0.0,0.10730152032286311,128,128,0.0009940266790380583,2,3,128,global_mean_pool,51720
1.7280376161594249,ReLU,32,0.3,0.11551145300345109,128,128,0.0007551410260387158,2,3,128,global_mean_pool,51720
1.4413893441704309,ReLU,32,0.0,0.17732297007653278,128,128,0.0006184554419345225,2,3,128,global_mean_pool,51720
1.4083588555196378,ReLU,32,0.0,0.09182458625677739,128,128,0.0009042041066876388,2,3,128,global_mean_pool,51720
1.4337242013467453,ReLU,64,0.0,0.08741831067267555,128,128,0.0010707186564162,2,3,128,global_mean_pool,51720
1.495571538768986,ReLU,32,0.0,0.06041131760662807,128,128,0.0009030416981946439,1,3,128,global_mean_pool,34952
1.4155200607427592,ReLU,32,0.0,0.09892709754129328,128,128,0.0008506207626008306,2,3,128,global_mean_pool,51720
2.3234553482041465,ReLU,32,0.0,0.09361152992005373,128,128,0.000989500043554157,2,3,128,global_max_pool,51720
1.4467319767765017,ReLU,32,0.0,0.078984147137378,128,64,0.000691144400732514,2,3,128,global_mean_pool,30600
1.4253263840308557,ReLU,32,0.0,0.07237810112491531,128,128,0.0009140594702108756,2,3,128,global_mean_pool,51720
1.4494132874325547,ReLU,32,0.0,0.10693103629098342,128,128,0.0008166721350755256,2,3,256,global_mean_pool,84872
1.4177645160897494,ReLU,32,0.0,0.16138117036659172,128,128,0.0008020096765016644,2,3,128,global_mean_pool,51720
1.4256896437249764,ReLU,32,0.0,0.11583993910222602,512,128,0.0006866396034632175,2,3,128,global_mean_pool,103560
1.7568054808576408,ReLU,32,0.5,0.1417179956924495,128,128,0.0011429084206948604,2,3,128,global_mean_pool,51720
1.4272670639359921,ReLU,32,0.0,0.09108132982783934,128,128,0.0009381067714011296,2,3,128,global_mean_pool,51720
1.4286578745759155,ReLU,32,0.0,0.12648445808515396,128,128,0.0007514364993444208,2,3,128,global_mean_pool,51720
1.6429351636257123,ELU,128,0.2,0.10317930204859757,128,128,0.006727653456694696,2,3,128,global_mean_pool,51720
1.4663247393615193,ReLU,32,0.0,0.15438330667217068,64,128,0.0010362488701003401,2,3,512,global_mean_pool,117960
1.4277867096529409,ReLU,32,0.0,0.17054656492109715,128,128,0.0008568085306977159,2,3,128,global_mean_pool,51720
1.467707216887557,ReLU,32,0.0,0.14553704360058947,128,512,0.0005829420286491439,2,3,128,global_mean_pool,350472
1.4432163274021954,ReLU,32,0.0,0.12450782084880821,128,256,0.0007449655127328396,2,3,128,global_mean_pool,118536
1.433016958662653,ReLU,32,0.0,0.11301442296154295,128,128,0.000664591870767234,2,3,128,global_mean_pool,51720
1.438826572510504,ReLU,32,0.0,0.13528892756336824,128,128,0.0008733491640600746,2,2,128,global_mean_pool,35208
1.4040865179326931,ReLU,32,0.0,0.16178487242727388,128,128,0.000802176594006829,2,3,128,global_mean_pool,51720
1.697977593459799,ReLU,32,0.05,0.18593714330592886,128,1024,0.0007619266651820646,2,3,128,global_max_pool,1207560
1.6115256444396215,ReLU,32,0.1,0.1663351057782645,128,128,0.0009662515556783984,2,3,128,global_mean_pool,51720
1.4384144026943235,ReLU,64,0.0,0.16209704352139204,128,128,0.0006450653545983625,2,3,128,global_mean_pool,51720
1.4377645585436383,ReLU,32,0.0,0.17653628011703237,128,128,0.0007104563056139531,2,3,128,global_mean_pool,51720
1.4140969133258754,ReLU,32,0.0,0.14914324872583257,128,128,0.0008046680048766292,2,3,128,global_mean_pool,51720
1.4332843134480138,ReLU,32,0.0,0.09378938486241277,128,128,0.0009077962117231291,2,3,128,global_mean_pool,51720
1.7318156851136655,ReLU,32,0.3,0.10307787255625012,128,128,0.0007809093798052533,2,3,128,global_mean_pool,51720
1.430537499505888,ReLU,32,0.0,0.15604108476275083,128,128,0.0006948585172007741,2,3,128,global_mean_pool,51720
1.4523521490191704,ReLU,32,0.0,0.0838524306539749,128,128,0.0008803550981192926,3,3,128,global_mean_pool,68488
1.4342867396309713,ReLU,32,0.0,0.11878331160103607,128,128,0.0010312958192114688,2,3,128,global_mean_pool,51720
1.4499860392610726,ReLU,32,0.0,0.14820123164843982,128,64,0.0006063227570017297,2,3,128,global_mean_pool,30600
1.4484539792200473,ReLU,32,0.0,0.1612290897957698,512,128,0.0008245748039358801,2,3,128,global_mean_pool,103560
1.424486267951227,ReLU,32,0.0,0.10984320934648362,128,128,0.0007192282620374806,2,3,128,global_mean_pool,51720
1.439607963964306,ReLU,32,0.0,0.13025809367817381,128,128,0.0009571281334052529,2,3,256,global_mean_pool,84872
1.520111580048838,ELU,32,0.0,0.17358101013725277,128,128,0.0007756692534416304,2,3,128,global_mean_pool,51720
1.4429342314859774,ReLU,128,0.0,0.07196120201078497,64,128,0.0008654341546126764,2,3,512,global_mean_pool,117960
1.4436443147824953,ReLU,32,0.0,0.19672141434807527,128,128,0.0006380185472787497,2,3,128,global_mean_pool,51720
1.4290844885350458,ReLU,32,0.0,0.1427297491489183,128,128,0.0007234016532106278,2,3,128,global_mean_pool,51720
1.7618447358791645,ReLU,32,0.5,0.12090043861504451,128,128,0.0008267806510546576,2,3,128,global_mean_pool,51720
1.7298744124159329,ReLU,32,0.2,0.09754256663368109,128,128,0.0009448311105545405,2,3,128,global_mean_pool,51720
1.6644122322499013,ReLU,32,0.0,0.08562338638983413,128,512,0.0005594027559551166,2,3,128,global_max_pool,350472
